<svg width="379" height="392" viewBox="0 0 379 392" fill="none" xmlns="http://www.w3.org/2000/svg">
<path d="M29.768 179.112C29.032 179.112 28.3707 178.984 27.784 178.728C27.208 178.461 26.7547 178.099 26.424 177.64C26.0933 177.171 25.9227 176.632 25.912 176.024H27.464C27.5173 176.547 27.7307 176.989 28.104 177.352C28.488 177.704 29.0427 177.88 29.768 177.88C30.4613 177.88 31.0053 177.709 31.4 177.368C31.8053 177.016 32.008 176.568 32.008 176.024C32.008 175.597 31.8907 175.251 31.656 174.984C31.4213 174.717 31.128 174.515 30.776 174.376C30.424 174.237 29.9493 174.088 29.352 173.928C28.616 173.736 28.024 173.544 27.576 173.352C27.1387 173.16 26.76 172.861 26.44 172.456C26.1307 172.04 25.976 171.485 25.976 170.792C25.976 170.184 26.1307 169.645 26.44 169.176C26.7493 168.707 27.1813 168.344 27.736 168.088C28.3013 167.832 28.9467 167.704 29.672 167.704C30.7173 167.704 31.5707 167.965 32.232 168.488C32.904 169.011 33.2827 169.704 33.368 170.568H31.768C31.7147 170.141 31.4907 169.768 31.096 169.448C30.7013 169.117 30.1787 168.952 29.528 168.952C28.92 168.952 28.424 169.112 28.04 169.432C27.656 169.741 27.464 170.179 27.464 170.744C27.464 171.149 27.576 171.48 27.8 171.736C28.0347 171.992 28.3173 172.189 28.648 172.328C28.9893 172.456 29.464 172.605 30.072 172.776C30.808 172.979 31.4 173.181 31.848 173.384C32.296 173.576 32.68 173.88 33 174.296C33.32 174.701 33.48 175.256 33.48 175.96C33.48 176.504 33.336 177.016 33.048 177.496C32.76 177.976 32.3333 178.365 31.768 178.664C31.2027 178.963 30.536 179.112 29.768 179.112ZM44.0226 174.28C44.0226 174.557 44.0066 174.851 43.9746 175.16H36.9666C37.02 176.024 37.3133 176.701 37.8466 177.192C38.3906 177.672 39.0466 177.912 39.8146 177.912C40.444 177.912 40.9666 177.768 41.3826 177.48C41.8093 177.181 42.108 176.787 42.2786 176.296H43.8466C43.612 177.139 43.1426 177.827 42.4386 178.36C41.7346 178.883 40.86 179.144 39.8146 179.144C38.9826 179.144 38.236 178.957 37.5746 178.584C36.924 178.211 36.412 177.683 36.0386 177C35.6653 176.307 35.4786 175.507 35.4786 174.6C35.4786 173.693 35.66 172.899 36.0226 172.216C36.3853 171.533 36.892 171.011 37.5426 170.648C38.204 170.275 38.9613 170.088 39.8146 170.088C40.6466 170.088 41.3826 170.269 42.0226 170.632C42.6626 170.995 43.1533 171.496 43.4946 172.136C43.8466 172.765 44.0226 173.48 44.0226 174.28ZM42.5186 173.976C42.5186 173.421 42.396 172.947 42.1506 172.552C41.9053 172.147 41.5693 171.843 41.1426 171.64C40.7266 171.427 40.2626 171.32 39.7506 171.32C39.0146 171.32 38.3853 171.555 37.8626 172.024C37.3506 172.493 37.0573 173.144 36.9826 173.976H42.5186ZM54.3445 174.28C54.3445 174.557 54.3285 174.851 54.2965 175.16H47.2885C47.3418 176.024 47.6352 176.701 48.1685 177.192C48.7125 177.672 49.3685 177.912 50.1365 177.912C50.7658 177.912 51.2885 177.768 51.7045 177.48C52.1312 177.181 52.4298 176.787 52.6005 176.296H54.1685C53.9338 177.139 53.4645 177.827 52.7605 178.36C52.0565 178.883 51.1818 179.144 50.1365 179.144C49.3045 179.144 48.5578 178.957 47.8965 178.584C47.2458 178.211 46.7338 177.683 46.3605 177C45.9872 176.307 45.8005 175.507 45.8005 174.6C45.8005 173.693 45.9818 172.899 46.3445 172.216C46.7072 171.533 47.2138 171.011 47.8645 170.648C48.5258 170.275 49.2832 170.088 50.1365 170.088C50.9685 170.088 51.7045 170.269 52.3445 170.632C52.9845 170.995 53.4752 171.496 53.8165 172.136C54.1685 172.765 54.3445 173.48 54.3445 174.28ZM52.8405 173.976C52.8405 173.421 52.7178 172.947 52.4725 172.552C52.2272 172.147 51.8912 171.843 51.4645 171.64C51.0485 171.427 50.5845 171.32 50.0725 171.32C49.3365 171.32 48.7072 171.555 48.1845 172.024C47.6725 172.493 47.3792 173.144 47.3045 173.976H52.8405ZM63.108 171.432V176.6C63.108 177.027 63.1987 177.331 63.38 177.512C63.5613 177.683 63.876 177.768 64.324 177.768H65.396V179H64.084C63.2733 179 62.6653 178.813 62.26 178.44C61.8547 178.067 61.652 177.453 61.652 176.6V171.432H60.516V170.232H61.652V168.024H63.108V170.232H65.396V171.432H63.108ZM75.5601 174.28C75.5601 174.557 75.5441 174.851 75.5121 175.16H68.5041C68.5575 176.024 68.8508 176.701 69.3841 177.192C69.9281 177.672 70.5841 177.912 71.3521 177.912C71.9815 177.912 72.5041 177.768 72.9201 177.48C73.3468 177.181 73.6455 176.787 73.8161 176.296H75.3841C75.1495 177.139 74.6801 177.827 73.9761 178.36C73.2721 178.883 72.3975 179.144 71.3521 179.144C70.5201 179.144 69.7735 178.957 69.1121 178.584C68.4615 178.211 67.9495 177.683 67.5761 177C67.2028 176.307 67.0161 175.507 67.0161 174.6C67.0161 173.693 67.1975 172.899 67.5601 172.216C67.9228 171.533 68.4295 171.011 69.0801 170.648C69.7415 170.275 70.4988 170.088 71.3521 170.088C72.1841 170.088 72.9201 170.269 73.5601 170.632C74.2001 170.995 74.6908 171.496 75.0321 172.136C75.3841 172.765 75.5601 173.48 75.5601 174.28ZM74.0561 173.976C74.0561 173.421 73.9335 172.947 73.6881 172.552C73.4428 172.147 73.1068 171.843 72.6801 171.64C72.2641 171.427 71.8001 171.32 71.2881 171.32C70.5521 171.32 69.9228 171.555 69.4001 172.024C68.8881 172.493 68.5948 173.144 68.5201 173.976H74.0561ZM77.338 174.584C77.338 173.688 77.5193 172.904 77.882 172.232C78.2447 171.549 78.7407 171.021 79.37 170.648C80.01 170.275 80.7193 170.088 81.498 170.088C82.266 170.088 82.9327 170.253 83.498 170.584C84.0633 170.915 84.4847 171.331 84.762 171.832V170.232H86.234V179H84.762V177.368C84.474 177.88 84.042 178.307 83.466 178.648C82.9007 178.979 82.2393 179.144 81.482 179.144C80.7033 179.144 79.9993 178.952 79.37 178.568C78.7407 178.184 78.2447 177.645 77.882 176.952C77.5193 176.259 77.338 175.469 77.338 174.584ZM84.762 174.6C84.762 173.939 84.6287 173.363 84.362 172.872C84.0953 172.381 83.7327 172.008 83.274 171.752C82.826 171.485 82.33 171.352 81.786 171.352C81.242 171.352 80.746 171.48 80.298 171.736C79.85 171.992 79.4927 172.365 79.226 172.856C78.9593 173.347 78.826 173.923 78.826 174.584C78.826 175.256 78.9593 175.843 79.226 176.344C79.4927 176.835 79.85 177.213 80.298 177.48C80.746 177.736 81.242 177.864 81.786 177.864C82.33 177.864 82.826 177.736 83.274 177.48C83.7327 177.213 84.0953 176.835 84.362 176.344C84.6287 175.843 84.762 175.261 84.762 174.6ZM99.6385 170.072C100.321 170.072 100.929 170.216 101.462 170.504C101.996 170.781 102.417 171.203 102.726 171.768C103.036 172.333 103.191 173.021 103.191 173.832V179H101.75V174.04C101.75 173.165 101.532 172.499 101.094 172.04C100.668 171.571 100.087 171.336 99.3505 171.336C98.5932 171.336 97.9905 171.581 97.5425 172.072C97.0945 172.552 96.8705 173.251 96.8705 174.168V179H95.4305V174.04C95.4305 173.165 95.2118 172.499 94.7745 172.04C94.3478 171.571 93.7665 171.336 93.0305 171.336C92.2732 171.336 91.6705 171.581 91.2225 172.072C90.7745 172.552 90.5505 173.251 90.5505 174.168V179H89.0945V170.232H90.5505V171.496C90.8385 171.037 91.2225 170.685 91.7025 170.44C92.1932 170.195 92.7318 170.072 93.3185 170.072C94.0545 170.072 94.7052 170.237 95.2705 170.568C95.8358 170.899 96.2572 171.384 96.5345 172.024C96.7798 171.405 97.1852 170.925 97.7505 170.584C98.3158 170.243 98.9452 170.072 99.6385 170.072Z" fill="#1B1A1A"/>
<path d="M25.088 3.856V26H22.176V9.488L14.816 26H12.768L5.376 9.456V26H2.464V3.856H5.6L13.792 22.16L21.984 3.856H25.088ZM46.0265 16.56C46.0265 17.1147 45.9945 17.7013 45.9305 18.32H31.9145C32.0212 20.048 32.6078 21.4027 33.6745 22.384C34.7625 23.344 36.0745 23.824 37.6105 23.824C38.8692 23.824 39.9145 23.536 40.7465 22.96C41.5998 22.3627 42.1972 21.5733 42.5385 20.592H45.6745C45.2052 22.2773 44.2665 23.6533 42.8585 24.72C41.4505 25.7653 39.7012 26.288 37.6105 26.288C35.9465 26.288 34.4532 25.9147 33.1305 25.168C31.8292 24.4213 30.8052 23.3653 30.0585 22C29.3118 20.6133 28.9385 19.0133 28.9385 17.2C28.9385 15.3867 29.3012 13.7973 30.0265 12.432C30.7518 11.0667 31.7652 10.0213 33.0665 9.296C34.3892 8.54933 35.9038 8.176 37.6105 8.176C39.2745 8.176 40.7465 8.53867 42.0265 9.264C43.3065 9.98933 44.2878 10.992 44.9705 12.272C45.6745 13.5307 46.0265 14.96 46.0265 16.56ZM43.0185 15.952C43.0185 14.8427 42.7732 13.8933 42.2825 13.104C41.7918 12.2933 41.1198 11.6853 40.2665 11.28C39.4345 10.8533 38.5065 10.64 37.4825 10.64C36.0105 10.64 34.7518 11.1093 33.7065 12.048C32.6825 12.9867 32.0958 14.288 31.9465 15.952H43.0185ZM65.8703 16.56C65.8703 17.1147 65.8383 17.7013 65.7743 18.32H51.7583C51.8649 20.048 52.4516 21.4027 53.5183 22.384C54.6063 23.344 55.9183 23.824 57.4543 23.824C58.7129 23.824 59.7583 23.536 60.5903 22.96C61.4436 22.3627 62.0409 21.5733 62.3823 20.592H65.5183C65.0489 22.2773 64.1103 23.6533 62.7023 24.72C61.2943 25.7653 59.5449 26.288 57.4543 26.288C55.7903 26.288 54.2969 25.9147 52.9743 25.168C51.6729 24.4213 50.6489 23.3653 49.9023 22C49.1556 20.6133 48.7823 19.0133 48.7823 17.2C48.7823 15.3867 49.1449 13.7973 49.8703 12.432C50.5956 11.0667 51.6089 10.0213 52.9103 9.296C54.2329 8.54933 55.7476 8.176 57.4543 8.176C59.1183 8.176 60.5903 8.53867 61.8703 9.264C63.1503 9.98933 64.1316 10.992 64.8143 12.272C65.5183 13.5307 65.8703 14.96 65.8703 16.56ZM62.8623 15.952C62.8623 14.8427 62.6169 13.8933 62.1263 13.104C61.6356 12.2933 60.9636 11.6853 60.1103 11.28C59.2783 10.8533 58.3503 10.64 57.3263 10.64C55.8543 10.64 54.5956 11.1093 53.5503 12.048C52.5263 12.9867 51.9396 14.288 51.7903 15.952H62.8623ZM73.266 10.864V21.2C73.266 22.0533 73.4473 22.6613 73.81 23.024C74.1727 23.3653 74.802 23.536 75.698 23.536H77.842V26H75.218C73.5967 26 72.3807 25.6267 71.57 24.88C70.7593 24.1333 70.354 22.9067 70.354 21.2V10.864H68.082V8.464H70.354V4.048H73.266V8.464H77.842V10.864H73.266ZM97.5495 26.288C95.9068 26.288 94.4135 25.9147 93.0695 25.168C91.7468 24.4213 90.7015 23.3653 89.9335 22C89.1868 20.6133 88.8135 19.0133 88.8135 17.2C88.8135 15.408 89.1975 13.8293 89.9655 12.464C90.7548 11.0773 91.8215 10.0213 93.1655 9.296C94.5095 8.54933 96.0135 8.176 97.6775 8.176C99.3415 8.176 100.846 8.54933 102.19 9.296C103.534 10.0213 104.59 11.0667 105.358 12.432C106.147 13.7973 106.542 15.3867 106.542 17.2C106.542 19.0133 106.136 20.6133 105.326 22C104.536 23.3653 103.459 24.4213 102.094 25.168C100.728 25.9147 99.2135 26.288 97.5495 26.288ZM97.5495 23.728C98.5948 23.728 99.5762 23.4827 100.494 22.992C101.411 22.5013 102.147 21.7653 102.702 20.784C103.278 19.8027 103.566 18.608 103.566 17.2C103.566 15.792 103.288 14.5973 102.734 13.616C102.179 12.6347 101.454 11.9093 100.558 11.44C99.6615 10.9493 98.6908 10.704 97.6455 10.704C96.5788 10.704 95.5975 10.9493 94.7015 11.44C93.8268 11.9093 93.1228 12.6347 92.5895 13.616C92.0562 14.5973 91.7895 15.792 91.7895 17.2C91.7895 18.6293 92.0455 19.8347 92.5575 20.816C93.0908 21.7973 93.7948 22.5333 94.6695 23.024C95.5442 23.4933 96.5042 23.728 97.5495 23.728ZM125.922 8.464V26H123.01V23.408C122.456 24.304 121.677 25.008 120.674 25.52C119.693 26.0107 118.605 26.256 117.41 26.256C116.045 26.256 114.818 25.9787 113.73 25.424C112.642 24.848 111.778 23.9947 111.138 22.864C110.52 21.7333 110.21 20.3573 110.21 18.736V8.464H113.09V18.352C113.09 20.08 113.528 21.4133 114.402 22.352C115.277 23.2693 116.472 23.728 117.986 23.728C119.544 23.728 120.77 23.248 121.666 22.288C122.562 21.328 123.01 19.9307 123.01 18.096V8.464H125.922ZM133.751 11.312C134.263 10.3093 134.988 9.53067 135.927 8.976C136.887 8.42133 138.05 8.144 139.415 8.144V11.152H138.647C135.383 11.152 133.751 12.9227 133.751 16.464V26H130.839V8.464H133.751V11.312ZM154.86 10.864V21.2C154.86 22.0533 155.041 22.6613 155.404 23.024C155.766 23.3653 156.396 23.536 157.292 23.536H159.436V26H156.812C155.19 26 153.974 25.6267 153.164 24.88C152.353 24.1333 151.948 22.9067 151.948 21.2V10.864H149.676V8.464H151.948V4.048H154.86V8.464H159.436V10.864H154.86ZM178.964 16.56C178.964 17.1147 178.932 17.7013 178.868 18.32H164.852C164.959 20.048 165.545 21.4027 166.612 22.384C167.7 23.344 169.012 23.824 170.548 23.824C171.807 23.824 172.852 23.536 173.684 22.96C174.537 22.3627 175.135 21.5733 175.476 20.592H178.612C178.143 22.2773 177.204 23.6533 175.796 24.72C174.388 25.7653 172.639 26.288 170.548 26.288C168.884 26.288 167.391 25.9147 166.068 25.168C164.767 24.4213 163.743 23.3653 162.996 22C162.249 20.6133 161.876 19.0133 161.876 17.2C161.876 15.3867 162.239 13.7973 162.964 12.432C163.689 11.0667 164.703 10.0213 166.004 9.296C167.327 8.54933 168.841 8.176 170.548 8.176C172.212 8.176 173.684 8.53867 174.964 9.264C176.244 9.98933 177.225 10.992 177.908 12.272C178.612 13.5307 178.964 14.96 178.964 16.56ZM175.956 15.952C175.956 14.8427 175.711 13.8933 175.22 13.104C174.729 12.2933 174.057 11.6853 173.204 11.28C172.372 10.8533 171.444 10.64 170.42 10.64C168.948 10.64 167.689 11.1093 166.644 12.048C165.62 12.9867 165.033 14.288 164.884 15.952H175.956ZM181.72 17.168C181.72 15.376 182.082 13.808 182.808 12.464C183.533 11.0987 184.525 10.0427 185.784 9.296C187.064 8.54933 188.482 8.176 190.04 8.176C191.576 8.176 192.909 8.50667 194.04 9.168C195.17 9.82933 196.013 10.6613 196.568 11.664V8.464H199.512V26H196.568V22.736C195.992 23.76 195.128 24.6133 193.976 25.296C192.845 25.9573 191.522 26.288 190.008 26.288C188.45 26.288 187.042 25.904 185.784 25.136C184.525 24.368 183.533 23.2907 182.808 21.904C182.082 20.5173 181.72 18.9387 181.72 17.168ZM196.568 17.2C196.568 15.8773 196.301 14.7253 195.768 13.744C195.234 12.7627 194.509 12.016 193.592 11.504C192.696 10.9707 191.704 10.704 190.616 10.704C189.528 10.704 188.536 10.96 187.64 11.472C186.744 11.984 186.029 12.7307 185.496 13.712C184.962 14.6933 184.696 15.8453 184.696 17.168C184.696 18.512 184.962 19.6853 185.496 20.688C186.029 21.6693 186.744 22.4267 187.64 22.96C188.536 23.472 189.528 23.728 190.616 23.728C191.704 23.728 192.696 23.472 193.592 22.96C194.509 22.4267 195.234 21.6693 195.768 20.688C196.301 19.6853 196.568 18.5227 196.568 17.2ZM225.521 8.144C226.886 8.144 228.102 8.432 229.169 9.008C230.235 9.56267 231.078 10.4053 231.697 11.536C232.315 12.6667 232.625 14.0427 232.625 15.664V26H229.745V16.08C229.745 14.3307 229.307 12.9973 228.433 12.08C227.579 11.1413 226.417 10.672 224.945 10.672C223.43 10.672 222.225 11.1627 221.329 12.144C220.433 13.104 219.985 14.5013 219.985 16.336V26H217.105V16.08C217.105 14.3307 216.667 12.9973 215.793 12.08C214.939 11.1413 213.777 10.672 212.305 10.672C210.79 10.672 209.585 11.1627 208.689 12.144C207.793 13.104 207.345 14.5013 207.345 16.336V26H204.433V8.464H207.345V10.992C207.921 10.0747 208.689 9.37067 209.649 8.88C210.63 8.38933 211.707 8.144 212.881 8.144C214.353 8.144 215.654 8.47467 216.785 9.136C217.915 9.79733 218.758 10.768 219.313 12.048C219.803 10.8107 220.614 9.85067 221.745 9.168C222.875 8.48533 224.134 8.144 225.521 8.144Z" fill="#403E3B"/>
<path d="M2.52 63.89H6.18V65H1.155V54.545H2.52V63.89ZM11.2146 65.135C10.4446 65.135 9.74461 64.96 9.11461 64.61C8.49461 64.26 8.00461 63.765 7.64461 63.125C7.29461 62.475 7.11961 61.725 7.11961 60.875C7.11961 60.035 7.29961 59.295 7.65961 58.655C8.02961 58.005 8.52961 57.51 9.15961 57.17C9.78961 56.82 10.4946 56.645 11.2746 56.645C12.0546 56.645 12.7596 56.82 13.3896 57.17C14.0196 57.51 14.5146 58 14.8746 58.64C15.2446 59.28 15.4296 60.025 15.4296 60.875C15.4296 61.725 15.2396 62.475 14.8596 63.125C14.4896 63.765 13.9846 64.26 13.3446 64.61C12.7046 64.96 11.9946 65.135 11.2146 65.135ZM11.2146 63.935C11.7046 63.935 12.1646 63.82 12.5946 63.59C13.0246 63.36 13.3696 63.015 13.6296 62.555C13.8996 62.095 14.0346 61.535 14.0346 60.875C14.0346 60.215 13.9046 59.655 13.6446 59.195C13.3846 58.735 13.0446 58.395 12.6246 58.175C12.2046 57.945 11.7496 57.83 11.2596 57.83C10.7596 57.83 10.2996 57.945 9.87961 58.175C9.46961 58.395 9.13961 58.735 8.88961 59.195C8.63961 59.655 8.51461 60.215 8.51461 60.875C8.51461 61.545 8.63461 62.11 8.87461 62.57C9.12461 63.03 9.45461 63.375 9.86461 63.605C10.2746 63.825 10.7246 63.935 11.2146 63.935ZM18.5893 58.115C18.8293 57.645 19.1693 57.28 19.6093 57.02C20.0593 56.76 20.6043 56.63 21.2443 56.63V58.04H20.8843C19.3543 58.04 18.5893 58.87 18.5893 60.53V65H17.2243V56.78H18.5893V58.115ZM30.32 60.575C30.32 60.835 30.305 61.11 30.275 61.4H23.705C23.755 62.21 24.03 62.845 24.53 63.305C25.04 63.755 25.655 63.98 26.375 63.98C26.965 63.98 27.455 63.845 27.845 63.575C28.245 63.295 28.525 62.925 28.685 62.465H30.155C29.935 63.255 29.495 63.9 28.835 64.4C28.175 64.89 27.355 65.135 26.375 65.135C25.595 65.135 24.895 64.96 24.275 64.61C23.665 64.26 23.185 63.765 22.835 63.125C22.485 62.475 22.31 61.725 22.31 60.875C22.31 60.025 22.48 59.28 22.82 58.64C23.16 58 23.635 57.51 24.245 57.17C24.865 56.82 25.575 56.645 26.375 56.645C27.155 56.645 27.845 56.815 28.445 57.155C29.045 57.495 29.505 57.965 29.825 58.565C30.155 59.155 30.32 59.825 30.32 60.575ZM28.91 60.29C28.91 59.77 28.795 59.325 28.565 58.955C28.335 58.575 28.02 58.29 27.62 58.1C27.23 57.9 26.795 57.8 26.315 57.8C25.625 57.8 25.035 58.02 24.545 58.46C24.065 58.9 23.79 59.51 23.72 60.29H28.91ZM42.0068 56.63C42.6468 56.63 43.2168 56.765 43.7168 57.035C44.2168 57.295 44.6118 57.69 44.9018 58.22C45.1918 58.75 45.3368 59.395 45.3368 60.155V65H43.9868V60.35C43.9868 59.53 43.7818 58.905 43.3718 58.475C42.9718 58.035 42.4268 57.815 41.7368 57.815C41.0268 57.815 40.4618 58.045 40.0418 58.505C39.6218 58.955 39.4118 59.61 39.4118 60.47V65H38.0618V60.35C38.0618 59.53 37.8568 58.905 37.4468 58.475C37.0468 58.035 36.5018 57.815 35.8118 57.815C35.1018 57.815 34.5368 58.045 34.1168 58.505C33.6968 58.955 33.4868 59.61 33.4868 60.47V65H32.1218V56.78H33.4868V57.965C33.7568 57.535 34.1168 57.205 34.5668 56.975C35.0268 56.745 35.5318 56.63 36.0818 56.63C36.7718 56.63 37.3818 56.785 37.9118 57.095C38.4418 57.405 38.8368 57.86 39.0968 58.46C39.3268 57.88 39.7068 57.43 40.2368 57.11C40.7668 56.79 41.3568 56.63 42.0068 56.63ZM52.2799 55.445C52.0199 55.445 51.7999 55.355 51.6199 55.175C51.4399 54.995 51.3499 54.775 51.3499 54.515C51.3499 54.255 51.4399 54.035 51.6199 53.855C51.7999 53.675 52.0199 53.585 52.2799 53.585C52.5299 53.585 52.7399 53.675 52.9099 53.855C53.0899 54.035 53.1799 54.255 53.1799 54.515C53.1799 54.775 53.0899 54.995 52.9099 55.175C52.7399 55.355 52.5299 55.445 52.2799 55.445ZM52.9399 56.78V65H51.5749V56.78H52.9399ZM56.6313 58.295C56.9013 57.825 57.3013 57.435 57.8313 57.125C58.3713 56.805 58.9963 56.645 59.7063 56.645C60.4363 56.645 61.0963 56.82 61.6863 57.17C62.2863 57.52 62.7563 58.015 63.0963 58.655C63.4363 59.285 63.6063 60.02 63.6063 60.86C63.6063 61.69 63.4363 62.43 63.0963 63.08C62.7563 63.73 62.2863 64.235 61.6863 64.595C61.0963 64.955 60.4363 65.135 59.7063 65.135C59.0063 65.135 58.3863 64.98 57.8463 64.67C57.3163 64.35 56.9113 63.955 56.6313 63.485V68.9H55.2663V56.78H56.6313V58.295ZM62.2113 60.86C62.2113 60.24 62.0863 59.7 61.8363 59.24C61.5863 58.78 61.2463 58.43 60.8163 58.19C60.3963 57.95 59.9313 57.83 59.4213 57.83C58.9213 57.83 58.4563 57.955 58.0263 58.205C57.6063 58.445 57.2663 58.8 57.0063 59.27C56.7563 59.73 56.6313 60.265 56.6313 60.875C56.6313 61.495 56.7563 62.04 57.0063 62.51C57.2663 62.97 57.6063 63.325 58.0263 63.575C58.4563 63.815 58.9213 63.935 59.4213 63.935C59.9313 63.935 60.3963 63.815 60.8163 63.575C61.2463 63.325 61.5863 62.97 61.8363 62.51C62.0863 62.04 62.2113 61.49 62.2113 60.86ZM68.313 65.135C67.683 65.135 67.118 65.03 66.618 64.82C66.118 64.6 65.723 64.3 65.433 63.92C65.143 63.53 64.983 63.085 64.953 62.585H66.363C66.403 62.995 66.593 63.33 66.933 63.59C67.283 63.85 67.738 63.98 68.298 63.98C68.818 63.98 69.228 63.865 69.528 63.635C69.828 63.405 69.978 63.115 69.978 62.765C69.978 62.405 69.818 62.14 69.498 61.97C69.178 61.79 68.683 61.615 68.013 61.445C67.403 61.285 66.903 61.125 66.513 60.965C66.133 60.795 65.803 60.55 65.523 60.23C65.253 59.9 65.118 59.47 65.118 58.94C65.118 58.52 65.243 58.135 65.493 57.785C65.743 57.435 66.098 57.16 66.558 56.96C67.018 56.75 67.543 56.645 68.133 56.645C69.043 56.645 69.778 56.875 70.338 57.335C70.898 57.795 71.198 58.425 71.238 59.225H69.873C69.843 58.795 69.668 58.45 69.348 58.19C69.038 57.93 68.618 57.8 68.088 57.8C67.598 57.8 67.208 57.905 66.918 58.115C66.628 58.325 66.483 58.6 66.483 58.94C66.483 59.21 66.568 59.435 66.738 59.615C66.918 59.785 67.138 59.925 67.398 60.035C67.668 60.135 68.038 60.25 68.508 60.38C69.098 60.54 69.578 60.7 69.948 60.86C70.318 61.01 70.633 61.24 70.893 61.55C71.163 61.86 71.303 62.265 71.313 62.765C71.313 63.215 71.188 63.62 70.938 63.98C70.688 64.34 70.333 64.625 69.873 64.835C69.423 65.035 68.903 65.135 68.313 65.135ZM80.53 56.78V65H79.165V63.785C78.905 64.205 78.54 64.535 78.07 64.775C77.61 65.005 77.1 65.12 76.54 65.12C75.9 65.12 75.325 64.99 74.815 64.73C74.305 64.46 73.9 64.06 73.6 63.53C73.31 63 73.165 62.355 73.165 61.595V56.78H74.515V61.415C74.515 62.225 74.72 62.85 75.13 63.29C75.54 63.72 76.1 63.935 76.81 63.935C77.54 63.935 78.115 63.71 78.535 63.26C78.955 62.81 79.165 62.155 79.165 61.295V56.78H80.53ZM92.7197 56.63C93.3597 56.63 93.9297 56.765 94.4297 57.035C94.9297 57.295 95.3247 57.69 95.6147 58.22C95.9047 58.75 96.0497 59.395 96.0497 60.155V65H94.6997V60.35C94.6997 59.53 94.4947 58.905 94.0847 58.475C93.6847 58.035 93.1397 57.815 92.4497 57.815C91.7397 57.815 91.1747 58.045 90.7547 58.505C90.3347 58.955 90.1247 59.61 90.1247 60.47V65H88.7747V60.35C88.7747 59.53 88.5697 58.905 88.1597 58.475C87.7597 58.035 87.2147 57.815 86.5247 57.815C85.8147 57.815 85.2497 58.045 84.8297 58.505C84.4097 58.955 84.1997 59.61 84.1997 60.47V65H82.8347V56.78H84.1997V57.965C84.4697 57.535 84.8297 57.205 85.2797 56.975C85.7397 56.745 86.2447 56.63 86.7947 56.63C87.4847 56.63 88.0947 56.785 88.6247 57.095C89.1547 57.405 89.5497 57.86 89.8097 58.46C90.0397 57.88 90.4197 57.43 90.9497 57.11C91.4797 56.79 92.0697 56.63 92.7197 56.63ZM101.778 60.86C101.778 60.02 101.948 59.285 102.288 58.655C102.628 58.015 103.093 57.52 103.683 57.17C104.283 56.82 104.953 56.645 105.693 56.645C106.333 56.645 106.928 56.795 107.478 57.095C108.028 57.385 108.448 57.77 108.738 58.25V53.9H110.118V65H108.738V63.455C108.468 63.945 108.068 64.35 107.538 64.67C107.008 64.98 106.388 65.135 105.678 65.135C104.948 65.135 104.283 64.955 103.683 64.595C103.093 64.235 102.628 63.73 102.288 63.08C101.948 62.43 101.778 61.69 101.778 60.86ZM108.738 60.875C108.738 60.255 108.613 59.715 108.363 59.255C108.113 58.795 107.773 58.445 107.343 58.205C106.923 57.955 106.458 57.83 105.948 57.83C105.438 57.83 104.973 57.95 104.553 58.19C104.133 58.43 103.798 58.78 103.548 59.24C103.298 59.7 103.173 60.24 103.173 60.86C103.173 61.49 103.298 62.04 103.548 62.51C103.798 62.97 104.133 63.325 104.553 63.575C104.973 63.815 105.438 63.935 105.948 63.935C106.458 63.935 106.923 63.815 107.343 63.575C107.773 63.325 108.113 62.97 108.363 62.51C108.613 62.04 108.738 61.495 108.738 60.875ZM116.01 65.135C115.24 65.135 114.54 64.96 113.91 64.61C113.29 64.26 112.8 63.765 112.44 63.125C112.09 62.475 111.915 61.725 111.915 60.875C111.915 60.035 112.095 59.295 112.455 58.655C112.825 58.005 113.325 57.51 113.955 57.17C114.585 56.82 115.29 56.645 116.07 56.645C116.85 56.645 117.555 56.82 118.185 57.17C118.815 57.51 119.31 58 119.67 58.64C120.04 59.28 120.225 60.025 120.225 60.875C120.225 61.725 120.035 62.475 119.655 63.125C119.285 63.765 118.78 64.26 118.14 64.61C117.5 64.96 116.79 65.135 116.01 65.135ZM116.01 63.935C116.5 63.935 116.96 63.82 117.39 63.59C117.82 63.36 118.165 63.015 118.425 62.555C118.695 62.095 118.83 61.535 118.83 60.875C118.83 60.215 118.7 59.655 118.44 59.195C118.18 58.735 117.84 58.395 117.42 58.175C117 57.945 116.545 57.83 116.055 57.83C115.555 57.83 115.095 57.945 114.675 58.175C114.265 58.395 113.935 58.735 113.685 59.195C113.435 59.655 113.31 60.215 113.31 60.875C113.31 61.545 113.43 62.11 113.67 62.57C113.92 63.03 114.25 63.375 114.66 63.605C115.07 63.825 115.52 63.935 116.01 63.935ZM123.384 53.9V65H122.019V53.9H123.384ZM129.296 65.135C128.526 65.135 127.826 64.96 127.196 64.61C126.576 64.26 126.086 63.765 125.726 63.125C125.376 62.475 125.201 61.725 125.201 60.875C125.201 60.035 125.381 59.295 125.741 58.655C126.111 58.005 126.611 57.51 127.241 57.17C127.871 56.82 128.576 56.645 129.356 56.645C130.136 56.645 130.841 56.82 131.471 57.17C132.101 57.51 132.596 58 132.956 58.64C133.326 59.28 133.511 60.025 133.511 60.875C133.511 61.725 133.321 62.475 132.941 63.125C132.571 63.765 132.066 64.26 131.426 64.61C130.786 64.96 130.076 65.135 129.296 65.135ZM129.296 63.935C129.786 63.935 130.246 63.82 130.676 63.59C131.106 63.36 131.451 63.015 131.711 62.555C131.981 62.095 132.116 61.535 132.116 60.875C132.116 60.215 131.986 59.655 131.726 59.195C131.466 58.735 131.126 58.395 130.706 58.175C130.286 57.945 129.831 57.83 129.341 57.83C128.841 57.83 128.381 57.945 127.961 58.175C127.551 58.395 127.221 58.735 126.971 59.195C126.721 59.655 126.596 60.215 126.596 60.875C126.596 61.545 126.716 62.11 126.956 62.57C127.206 63.03 127.536 63.375 127.946 63.605C128.356 63.825 128.806 63.935 129.296 63.935ZM136.67 58.115C136.91 57.645 137.25 57.28 137.69 57.02C138.14 56.76 138.685 56.63 139.325 56.63V58.04H138.965C137.435 58.04 136.67 58.87 136.67 60.53V65H135.305V56.78H136.67V58.115ZM147.81 65.135C147.18 65.135 146.615 65.03 146.115 64.82C145.615 64.6 145.22 64.3 144.93 63.92C144.64 63.53 144.48 63.085 144.45 62.585H145.86C145.9 62.995 146.09 63.33 146.43 63.59C146.78 63.85 147.235 63.98 147.795 63.98C148.315 63.98 148.725 63.865 149.025 63.635C149.325 63.405 149.475 63.115 149.475 62.765C149.475 62.405 149.315 62.14 148.995 61.97C148.675 61.79 148.18 61.615 147.51 61.445C146.9 61.285 146.4 61.125 146.01 60.965C145.63 60.795 145.3 60.55 145.02 60.23C144.75 59.9 144.615 59.47 144.615 58.94C144.615 58.52 144.74 58.135 144.99 57.785C145.24 57.435 145.595 57.16 146.055 56.96C146.515 56.75 147.04 56.645 147.63 56.645C148.54 56.645 149.275 56.875 149.835 57.335C150.395 57.795 150.695 58.425 150.735 59.225H149.37C149.34 58.795 149.165 58.45 148.845 58.19C148.535 57.93 148.115 57.8 147.585 57.8C147.095 57.8 146.705 57.905 146.415 58.115C146.125 58.325 145.98 58.6 145.98 58.94C145.98 59.21 146.065 59.435 146.235 59.615C146.415 59.785 146.635 59.925 146.895 60.035C147.165 60.135 147.535 60.25 148.005 60.38C148.595 60.54 149.075 60.7 149.445 60.86C149.815 61.01 150.13 61.24 150.39 61.55C150.66 61.86 150.8 62.265 150.81 62.765C150.81 63.215 150.685 63.62 150.435 63.98C150.185 64.34 149.83 64.625 149.37 64.835C148.92 65.035 148.4 65.135 147.81 65.135ZM153.442 55.445C153.182 55.445 152.962 55.355 152.782 55.175C152.602 54.995 152.512 54.775 152.512 54.515C152.512 54.255 152.602 54.035 152.782 53.855C152.962 53.675 153.182 53.585 153.442 53.585C153.692 53.585 153.902 53.675 154.072 53.855C154.252 54.035 154.342 54.255 154.342 54.515C154.342 54.775 154.252 54.995 154.072 55.175C153.902 55.355 153.692 55.445 153.442 55.445ZM154.102 56.78V65H152.737V56.78H154.102ZM158.093 57.905V62.75C158.093 63.15 158.178 63.435 158.348 63.605C158.518 63.765 158.813 63.845 159.233 63.845H160.238V65H159.008C158.248 65 157.678 64.825 157.298 64.475C156.918 64.125 156.728 63.55 156.728 62.75V57.905H155.663V56.78H156.728V54.71H158.093V56.78H160.238V57.905H158.093ZM165.381 60.86C165.381 60.02 165.551 59.285 165.891 58.655C166.231 58.015 166.696 57.52 167.286 57.17C167.886 56.82 168.551 56.645 169.281 56.645C170.001 56.645 170.626 56.8 171.156 57.11C171.686 57.42 172.081 57.81 172.341 58.28V56.78H173.721V65H172.341V63.47C172.071 63.95 171.666 64.35 171.126 64.67C170.596 64.98 169.976 65.135 169.266 65.135C168.536 65.135 167.876 64.955 167.286 64.595C166.696 64.235 166.231 63.73 165.891 63.08C165.551 62.43 165.381 61.69 165.381 60.86ZM172.341 60.875C172.341 60.255 172.216 59.715 171.966 59.255C171.716 58.795 171.376 58.445 170.946 58.205C170.526 57.955 170.061 57.83 169.551 57.83C169.041 57.83 168.576 57.95 168.156 58.19C167.736 58.43 167.401 58.78 167.151 59.24C166.901 59.7 166.776 60.24 166.776 60.86C166.776 61.49 166.901 62.04 167.151 62.51C167.401 62.97 167.736 63.325 168.156 63.575C168.576 63.815 169.041 63.935 169.551 63.935C170.061 63.935 170.526 63.815 170.946 63.575C171.376 63.325 171.716 62.97 171.966 62.51C172.216 62.04 172.341 61.495 172.341 60.875ZM185.913 56.63C186.553 56.63 187.123 56.765 187.623 57.035C188.123 57.295 188.518 57.69 188.808 58.22C189.098 58.75 189.243 59.395 189.243 60.155V65H187.893V60.35C187.893 59.53 187.688 58.905 187.278 58.475C186.878 58.035 186.333 57.815 185.643 57.815C184.933 57.815 184.368 58.045 183.948 58.505C183.528 58.955 183.318 59.61 183.318 60.47V65H181.968V60.35C181.968 59.53 181.763 58.905 181.353 58.475C180.953 58.035 180.408 57.815 179.718 57.815C179.008 57.815 178.443 58.045 178.023 58.505C177.603 58.955 177.393 59.61 177.393 60.47V65H176.028V56.78H177.393V57.965C177.663 57.535 178.023 57.205 178.473 56.975C178.933 56.745 179.438 56.63 179.988 56.63C180.678 56.63 181.288 56.785 181.818 57.095C182.348 57.405 182.743 57.86 183.003 58.46C183.233 57.88 183.613 57.43 184.143 57.11C184.673 56.79 185.263 56.63 185.913 56.63ZM198.982 60.575C198.982 60.835 198.967 61.11 198.937 61.4H192.367C192.417 62.21 192.692 62.845 193.192 63.305C193.702 63.755 194.317 63.98 195.037 63.98C195.627 63.98 196.117 63.845 196.507 63.575C196.907 63.295 197.187 62.925 197.347 62.465H198.817C198.597 63.255 198.157 63.9 197.497 64.4C196.837 64.89 196.017 65.135 195.037 65.135C194.257 65.135 193.557 64.96 192.937 64.61C192.327 64.26 191.847 63.765 191.497 63.125C191.147 62.475 190.972 61.725 190.972 60.875C190.972 60.025 191.142 59.28 191.482 58.64C191.822 58 192.297 57.51 192.907 57.17C193.527 56.82 194.237 56.645 195.037 56.645C195.817 56.645 196.507 56.815 197.107 57.155C197.707 57.495 198.167 57.965 198.487 58.565C198.817 59.155 198.982 59.825 198.982 60.575ZM197.572 60.29C197.572 59.77 197.457 59.325 197.227 58.955C196.997 58.575 196.682 58.29 196.282 58.1C195.892 57.9 195.457 57.8 194.977 57.8C194.287 57.8 193.697 58.02 193.207 58.46C192.727 58.9 192.452 59.51 192.382 60.29H197.572ZM202.449 57.905V62.75C202.449 63.15 202.534 63.435 202.704 63.605C202.874 63.765 203.169 63.845 203.589 63.845H204.594V65H203.364C202.604 65 202.034 64.825 201.654 64.475C201.274 64.125 201.084 63.55 201.084 62.75V57.905H200.019V56.78H201.084V54.71H202.449V56.78H204.594V57.905H202.449ZM207.658 63.11L205.978 67.145H205.063L206.158 63.11H207.658ZM212.71 60.875C212.71 60.025 212.88 59.285 213.22 58.655C213.56 58.015 214.03 57.52 214.63 57.17C215.24 56.82 215.935 56.645 216.715 56.645C217.725 56.645 218.555 56.89 219.205 57.38C219.865 57.87 220.3 58.55 220.51 59.42H219.04C218.9 58.92 218.625 58.525 218.215 58.235C217.815 57.945 217.315 57.8 216.715 57.8C215.935 57.8 215.305 58.07 214.825 58.61C214.345 59.14 214.105 59.895 214.105 60.875C214.105 61.865 214.345 62.63 214.825 63.17C215.305 63.71 215.935 63.98 216.715 63.98C217.315 63.98 217.815 63.84 218.215 63.56C218.615 63.28 218.89 62.88 219.04 62.36H220.51C220.29 63.2 219.85 63.875 219.19 64.385C218.53 64.885 217.705 65.135 216.715 65.135C215.935 65.135 215.24 64.96 214.63 64.61C214.03 64.26 213.56 63.765 213.22 63.125C212.88 62.485 212.71 61.735 212.71 60.875ZM225.917 65.135C225.147 65.135 224.447 64.96 223.817 64.61C223.197 64.26 222.707 63.765 222.347 63.125C221.997 62.475 221.822 61.725 221.822 60.875C221.822 60.035 222.002 59.295 222.362 58.655C222.732 58.005 223.232 57.51 223.862 57.17C224.492 56.82 225.197 56.645 225.977 56.645C226.757 56.645 227.462 56.82 228.092 57.17C228.722 57.51 229.217 58 229.577 58.64C229.947 59.28 230.132 60.025 230.132 60.875C230.132 61.725 229.942 62.475 229.562 63.125C229.192 63.765 228.687 64.26 228.047 64.61C227.407 64.96 226.697 65.135 225.917 65.135ZM225.917 63.935C226.407 63.935 226.867 63.82 227.297 63.59C227.727 63.36 228.072 63.015 228.332 62.555C228.602 62.095 228.737 61.535 228.737 60.875C228.737 60.215 228.607 59.655 228.347 59.195C228.087 58.735 227.747 58.395 227.327 58.175C226.907 57.945 226.452 57.83 225.962 57.83C225.462 57.83 225.002 57.945 224.582 58.175C224.172 58.395 223.842 58.735 223.592 59.195C223.342 59.655 223.217 60.215 223.217 60.875C223.217 61.545 223.337 62.11 223.577 62.57C223.827 63.03 224.157 63.375 224.567 63.605C224.977 63.825 225.427 63.935 225.917 63.935ZM235.931 56.63C236.931 56.63 237.741 56.935 238.361 57.545C238.981 58.145 239.291 59.015 239.291 60.155V65H237.941V60.35C237.941 59.53 237.736 58.905 237.326 58.475C236.916 58.035 236.356 57.815 235.646 57.815C234.926 57.815 234.351 58.04 233.921 58.49C233.501 58.94 233.291 59.595 233.291 60.455V65H231.926V56.78H233.291V57.95C233.561 57.53 233.926 57.205 234.386 56.975C234.856 56.745 235.371 56.63 235.931 56.63ZM244.431 65.135C243.801 65.135 243.236 65.03 242.736 64.82C242.236 64.6 241.841 64.3 241.551 63.92C241.261 63.53 241.101 63.085 241.071 62.585H242.481C242.521 62.995 242.711 63.33 243.051 63.59C243.401 63.85 243.856 63.98 244.416 63.98C244.936 63.98 245.346 63.865 245.646 63.635C245.946 63.405 246.096 63.115 246.096 62.765C246.096 62.405 245.936 62.14 245.616 61.97C245.296 61.79 244.801 61.615 244.131 61.445C243.521 61.285 243.021 61.125 242.631 60.965C242.251 60.795 241.921 60.55 241.641 60.23C241.371 59.9 241.236 59.47 241.236 58.94C241.236 58.52 241.361 58.135 241.611 57.785C241.861 57.435 242.216 57.16 242.676 56.96C243.136 56.75 243.661 56.645 244.251 56.645C245.161 56.645 245.896 56.875 246.456 57.335C247.016 57.795 247.316 58.425 247.356 59.225H245.991C245.961 58.795 245.786 58.45 245.466 58.19C245.156 57.93 244.736 57.8 244.206 57.8C243.716 57.8 243.326 57.905 243.036 58.115C242.746 58.325 242.601 58.6 242.601 58.94C242.601 59.21 242.686 59.435 242.856 59.615C243.036 59.785 243.256 59.925 243.516 60.035C243.786 60.135 244.156 60.25 244.626 60.38C245.216 60.54 245.696 60.7 246.066 60.86C246.436 61.01 246.751 61.24 247.011 61.55C247.281 61.86 247.421 62.265 247.431 62.765C247.431 63.215 247.306 63.62 247.056 63.98C246.806 64.34 246.451 64.625 245.991 64.835C245.541 65.035 245.021 65.135 244.431 65.135ZM256.858 60.575C256.858 60.835 256.843 61.11 256.813 61.4H250.243C250.293 62.21 250.568 62.845 251.068 63.305C251.578 63.755 252.193 63.98 252.913 63.98C253.503 63.98 253.993 63.845 254.383 63.575C254.783 63.295 255.063 62.925 255.223 62.465H256.693C256.473 63.255 256.033 63.9 255.373 64.4C254.713 64.89 253.893 65.135 252.913 65.135C252.133 65.135 251.433 64.96 250.813 64.61C250.203 64.26 249.723 63.765 249.373 63.125C249.023 62.475 248.848 61.725 248.848 60.875C248.848 60.025 249.018 59.28 249.358 58.64C249.698 58 250.173 57.51 250.783 57.17C251.403 56.82 252.113 56.645 252.913 56.645C253.693 56.645 254.383 56.815 254.983 57.155C255.583 57.495 256.043 57.965 256.363 58.565C256.693 59.155 256.858 59.825 256.858 60.575ZM255.448 60.29C255.448 59.77 255.333 59.325 255.103 58.955C254.873 58.575 254.558 58.29 254.158 58.1C253.768 57.9 253.333 57.8 252.853 57.8C252.163 57.8 251.573 58.02 251.083 58.46C250.603 58.9 250.328 59.51 250.258 60.29H255.448ZM258.15 60.875C258.15 60.025 258.32 59.285 258.66 58.655C259 58.015 259.47 57.52 260.07 57.17C260.68 56.82 261.375 56.645 262.155 56.645C263.165 56.645 263.995 56.89 264.645 57.38C265.305 57.87 265.74 58.55 265.95 59.42H264.48C264.34 58.92 264.065 58.525 263.655 58.235C263.255 57.945 262.755 57.8 262.155 57.8C261.375 57.8 260.745 58.07 260.265 58.61C259.785 59.14 259.545 59.895 259.545 60.875C259.545 61.865 259.785 62.63 260.265 63.17C260.745 63.71 261.375 63.98 262.155 63.98C262.755 63.98 263.255 63.84 263.655 63.56C264.055 63.28 264.33 62.88 264.48 62.36H265.95C265.73 63.2 265.29 63.875 264.63 64.385C263.97 64.885 263.145 65.135 262.155 65.135C261.375 65.135 260.68 64.96 260.07 64.61C259.47 64.26 259 63.765 258.66 63.125C258.32 62.485 258.15 61.735 258.15 60.875ZM269.436 57.905V62.75C269.436 63.15 269.521 63.435 269.691 63.605C269.861 63.765 270.156 63.845 270.576 63.845H271.581V65H270.351C269.591 65 269.021 64.825 268.641 64.475C268.261 64.125 268.071 63.55 268.071 62.75V57.905H267.006V56.78H268.071V54.71H269.436V56.78H271.581V57.905H269.436ZM280.735 60.575C280.735 60.835 280.72 61.11 280.69 61.4H274.12C274.17 62.21 274.445 62.845 274.945 63.305C275.455 63.755 276.07 63.98 276.79 63.98C277.38 63.98 277.87 63.845 278.26 63.575C278.66 63.295 278.94 62.925 279.1 62.465H280.57C280.35 63.255 279.91 63.9 279.25 64.4C278.59 64.89 277.77 65.135 276.79 65.135C276.01 65.135 275.31 64.96 274.69 64.61C274.08 64.26 273.6 63.765 273.25 63.125C272.9 62.475 272.725 61.725 272.725 60.875C272.725 60.025 272.895 59.28 273.235 58.64C273.575 58 274.05 57.51 274.66 57.17C275.28 56.82 275.99 56.645 276.79 56.645C277.57 56.645 278.26 56.815 278.86 57.155C279.46 57.495 279.92 57.965 280.24 58.565C280.57 59.155 280.735 59.825 280.735 60.575ZM279.325 60.29C279.325 59.77 279.21 59.325 278.98 58.955C278.75 58.575 278.435 58.29 278.035 58.1C277.645 57.9 277.21 57.8 276.73 57.8C276.04 57.8 275.45 58.02 274.96 58.46C274.48 58.9 274.205 59.51 274.135 60.29H279.325ZM284.202 57.905V62.75C284.202 63.15 284.287 63.435 284.457 63.605C284.627 63.765 284.922 63.845 285.342 63.845H286.347V65H285.117C284.357 65 283.787 64.825 283.407 64.475C283.027 64.125 282.837 63.55 282.837 62.75V57.905H281.772V56.78H282.837V54.71H284.202V56.78H286.347V57.905H284.202ZM295.291 56.78V65H293.926V63.785C293.666 64.205 293.301 64.535 292.831 64.775C292.371 65.005 291.861 65.12 291.301 65.12C290.661 65.12 290.086 64.99 289.576 64.73C289.066 64.46 288.661 64.06 288.361 63.53C288.071 63 287.926 62.355 287.926 61.595V56.78H289.276V61.415C289.276 62.225 289.481 62.85 289.891 63.29C290.301 63.72 290.861 63.935 291.571 63.935C292.301 63.935 292.876 63.71 293.296 63.26C293.716 62.81 293.926 62.155 293.926 61.295V56.78H295.291ZM298.96 58.115C299.2 57.645 299.54 57.28 299.98 57.02C300.43 56.76 300.975 56.63 301.615 56.63V58.04H301.255C299.725 58.04 298.96 58.87 298.96 60.53V65H297.595V56.78H298.96V58.115ZM0.645 84.86C0.645 84.02 0.815 83.285 1.155 82.655C1.495 82.015 1.96 81.52 2.55 81.17C3.15 80.82 3.815 80.645 4.545 80.645C5.265 80.645 5.89 80.8 6.42 81.11C6.95 81.42 7.345 81.81 7.605 82.28V80.78H8.985V89H7.605V87.47C7.335 87.95 6.93 88.35 6.39 88.67C5.86 88.98 5.24 89.135 4.53 89.135C3.8 89.135 3.14 88.955 2.55 88.595C1.96 88.235 1.495 87.73 1.155 87.08C0.815 86.43 0.645 85.69 0.645 84.86ZM7.605 84.875C7.605 84.255 7.48 83.715 7.23 83.255C6.98 82.795 6.64 82.445 6.21 82.205C5.79 81.955 5.325 81.83 4.815 81.83C4.305 81.83 3.84 81.95 3.42 82.19C3 82.43 2.665 82.78 2.415 83.24C2.165 83.7 2.04 84.24 2.04 84.86C2.04 85.49 2.165 86.04 2.415 86.51C2.665 86.97 3 87.325 3.42 87.575C3.84 87.815 4.305 87.935 4.815 87.935C5.325 87.935 5.79 87.815 6.21 87.575C6.64 87.325 6.98 86.97 7.23 86.51C7.48 86.04 7.605 85.495 7.605 84.875ZM10.7817 84.86C10.7817 84.02 10.9517 83.285 11.2917 82.655C11.6317 82.015 12.0967 81.52 12.6867 81.17C13.2867 80.82 13.9567 80.645 14.6967 80.645C15.3367 80.645 15.9317 80.795 16.4817 81.095C17.0317 81.385 17.4517 81.77 17.7417 82.25V77.9H19.1217V89H17.7417V87.455C17.4717 87.945 17.0717 88.35 16.5417 88.67C16.0117 88.98 15.3917 89.135 14.6817 89.135C13.9517 89.135 13.2867 88.955 12.6867 88.595C12.0967 88.235 11.6317 87.73 11.2917 87.08C10.9517 86.43 10.7817 85.69 10.7817 84.86ZM17.7417 84.875C17.7417 84.255 17.6167 83.715 17.3667 83.255C17.1167 82.795 16.7767 82.445 16.3467 82.205C15.9267 81.955 15.4617 81.83 14.9517 81.83C14.4417 81.83 13.9767 81.95 13.5567 82.19C13.1367 82.43 12.8017 82.78 12.5517 83.24C12.3017 83.7 12.1767 84.24 12.1767 84.86C12.1767 85.49 12.3017 86.04 12.5517 86.51C12.8017 86.97 13.1367 87.325 13.5567 87.575C13.9767 87.815 14.4417 87.935 14.9517 87.935C15.4617 87.935 15.9267 87.815 16.3467 87.575C16.7767 87.325 17.1167 86.97 17.3667 86.51C17.6167 86.04 17.7417 85.495 17.7417 84.875ZM22.1334 79.445C21.8734 79.445 21.6534 79.355 21.4734 79.175C21.2934 78.995 21.2034 78.775 21.2034 78.515C21.2034 78.255 21.2934 78.035 21.4734 77.855C21.6534 77.675 21.8734 77.585 22.1334 77.585C22.3834 77.585 22.5934 77.675 22.7634 77.855C22.9434 78.035 23.0334 78.255 23.0334 78.515C23.0334 78.775 22.9434 78.995 22.7634 79.175C22.5934 79.355 22.3834 79.445 22.1334 79.445ZM22.7934 80.78V89H21.4284V80.78H22.7934ZM26.4848 82.295C26.7548 81.825 27.1548 81.435 27.6848 81.125C28.2248 80.805 28.8498 80.645 29.5598 80.645C30.2898 80.645 30.9498 80.82 31.5398 81.17C32.1398 81.52 32.6098 82.015 32.9498 82.655C33.2898 83.285 33.4598 84.02 33.4598 84.86C33.4598 85.69 33.2898 86.43 32.9498 87.08C32.6098 87.73 32.1398 88.235 31.5398 88.595C30.9498 88.955 30.2898 89.135 29.5598 89.135C28.8598 89.135 28.2398 88.98 27.6998 88.67C27.1698 88.35 26.7648 87.955 26.4848 87.485V92.9H25.1198V80.78H26.4848V82.295ZM32.0648 84.86C32.0648 84.24 31.9398 83.7 31.6898 83.24C31.4398 82.78 31.0998 82.43 30.6698 82.19C30.2498 81.95 29.7848 81.83 29.2748 81.83C28.7748 81.83 28.3098 81.955 27.8798 82.205C27.4598 82.445 27.1198 82.8 26.8598 83.27C26.6098 83.73 26.4848 84.265 26.4848 84.875C26.4848 85.495 26.6098 86.04 26.8598 86.51C27.1198 86.97 27.4598 87.325 27.8798 87.575C28.3098 87.815 28.7748 87.935 29.2748 87.935C29.7848 87.935 30.2498 87.815 30.6698 87.575C31.0998 87.325 31.4398 86.97 31.6898 86.51C31.9398 86.04 32.0648 85.49 32.0648 84.86ZM35.9616 79.445C35.7016 79.445 35.4816 79.355 35.3016 79.175C35.1216 78.995 35.0316 78.775 35.0316 78.515C35.0316 78.255 35.1216 78.035 35.3016 77.855C35.4816 77.675 35.7016 77.585 35.9616 77.585C36.2116 77.585 36.4216 77.675 36.5916 77.855C36.7716 78.035 36.8616 78.255 36.8616 78.515C36.8616 78.775 36.7716 78.995 36.5916 79.175C36.4216 79.355 36.2116 79.445 35.9616 79.445ZM36.6216 80.78V89H35.2566V80.78H36.6216ZM41.858 89.135C41.228 89.135 40.663 89.03 40.163 88.82C39.663 88.6 39.268 88.3 38.978 87.92C38.688 87.53 38.528 87.085 38.498 86.585H39.908C39.948 86.995 40.138 87.33 40.478 87.59C40.828 87.85 41.283 87.98 41.843 87.98C42.363 87.98 42.773 87.865 43.073 87.635C43.373 87.405 43.523 87.115 43.523 86.765C43.523 86.405 43.363 86.14 43.043 85.97C42.723 85.79 42.228 85.615 41.558 85.445C40.948 85.285 40.448 85.125 40.058 84.965C39.678 84.795 39.348 84.55 39.068 84.23C38.798 83.9 38.663 83.47 38.663 82.94C38.663 82.52 38.788 82.135 39.038 81.785C39.288 81.435 39.643 81.16 40.103 80.96C40.563 80.75 41.088 80.645 41.678 80.645C42.588 80.645 43.323 80.875 43.883 81.335C44.443 81.795 44.743 82.425 44.783 83.225H43.418C43.388 82.795 43.213 82.45 42.893 82.19C42.583 81.93 42.163 81.8 41.633 81.8C41.143 81.8 40.753 81.905 40.463 82.115C40.173 82.325 40.028 82.6 40.028 82.94C40.028 83.21 40.113 83.435 40.283 83.615C40.463 83.785 40.683 83.925 40.943 84.035C41.213 84.135 41.583 84.25 42.053 84.38C42.643 84.54 43.123 84.7 43.493 84.86C43.863 85.01 44.178 85.24 44.438 85.55C44.708 85.86 44.848 86.265 44.858 86.765C44.858 87.215 44.733 87.62 44.483 87.98C44.233 88.34 43.878 88.625 43.418 88.835C42.968 89.035 42.448 89.135 41.858 89.135ZM46.2749 84.875C46.2749 84.025 46.4449 83.285 46.7849 82.655C47.1249 82.015 47.5949 81.52 48.1949 81.17C48.8049 80.82 49.4999 80.645 50.2799 80.645C51.2899 80.645 52.1199 80.89 52.7699 81.38C53.4299 81.87 53.8649 82.55 54.0749 83.42H52.6049C52.4649 82.92 52.1899 82.525 51.7799 82.235C51.3799 81.945 50.8799 81.8 50.2799 81.8C49.4999 81.8 48.8699 82.07 48.3899 82.61C47.9099 83.14 47.6699 83.895 47.6699 84.875C47.6699 85.865 47.9099 86.63 48.3899 87.17C48.8699 87.71 49.4999 87.98 50.2799 87.98C50.8799 87.98 51.3799 87.84 51.7799 87.56C52.1799 87.28 52.4549 86.88 52.6049 86.36H54.0749C53.8549 87.2 53.4149 87.875 52.7549 88.385C52.0949 88.885 51.2699 89.135 50.2799 89.135C49.4999 89.135 48.8049 88.96 48.1949 88.61C47.5949 88.26 47.1249 87.765 46.7849 87.125C46.4449 86.485 46.2749 85.735 46.2749 84.875ZM56.6012 79.445C56.3412 79.445 56.1212 79.355 55.9412 79.175C55.7612 78.995 55.6712 78.775 55.6712 78.515C55.6712 78.255 55.7612 78.035 55.9412 77.855C56.1212 77.675 56.3412 77.585 56.6012 77.585C56.8512 77.585 57.0612 77.675 57.2312 77.855C57.4112 78.035 57.5012 78.255 57.5012 78.515C57.5012 78.775 57.4112 78.995 57.2312 79.175C57.0612 79.355 56.8512 79.445 56.6012 79.445ZM57.2612 80.78V89H55.8962V80.78H57.2612ZM63.5926 80.63C64.5926 80.63 65.4026 80.935 66.0226 81.545C66.6426 82.145 66.9526 83.015 66.9526 84.155V89H65.6026V84.35C65.6026 83.53 65.3976 82.905 64.9876 82.475C64.5776 82.035 64.0176 81.815 63.3076 81.815C62.5876 81.815 62.0126 82.04 61.5826 82.49C61.1626 82.94 60.9526 83.595 60.9526 84.455V89H59.5876V80.78H60.9526V81.95C61.2226 81.53 61.5876 81.205 62.0476 80.975C62.5176 80.745 63.0326 80.63 63.5926 80.63ZM72.5723 80.645C73.2823 80.645 73.9023 80.8 74.4323 81.11C74.9723 81.42 75.3723 81.81 75.6323 82.28V80.78H77.0123V89.18C77.0123 89.93 76.8523 90.595 76.5323 91.175C76.2123 91.765 75.7523 92.225 75.1523 92.555C74.5623 92.885 73.8723 93.05 73.0823 93.05C72.0023 93.05 71.1023 92.795 70.3823 92.285C69.6623 91.775 69.2373 91.08 69.1073 90.2H70.4573C70.6073 90.7 70.9173 91.1 71.3873 91.4C71.8573 91.71 72.4223 91.865 73.0823 91.865C73.8323 91.865 74.4423 91.63 74.9123 91.16C75.3923 90.69 75.6323 90.03 75.6323 89.18V87.455C75.3623 87.935 74.9623 88.335 74.4323 88.655C73.9023 88.975 73.2823 89.135 72.5723 89.135C71.8423 89.135 71.1773 88.955 70.5773 88.595C69.9873 88.235 69.5223 87.73 69.1823 87.08C68.8423 86.43 68.6723 85.69 68.6723 84.86C68.6723 84.02 68.8423 83.285 69.1823 82.655C69.5223 82.015 69.9873 81.52 70.5773 81.17C71.1773 80.82 71.8423 80.645 72.5723 80.645ZM75.6323 84.875C75.6323 84.255 75.5073 83.715 75.2573 83.255C75.0073 82.795 74.6673 82.445 74.2373 82.205C73.8173 81.955 73.3523 81.83 72.8423 81.83C72.3323 81.83 71.8673 81.95 71.4473 82.19C71.0273 82.43 70.6923 82.78 70.4423 83.24C70.1923 83.7 70.0673 84.24 70.0673 84.86C70.0673 85.49 70.1923 86.04 70.4423 86.51C70.6923 86.97 71.0273 87.325 71.4473 87.575C71.8673 87.815 72.3323 87.935 72.8423 87.935C73.3523 87.935 73.8173 87.815 74.2373 87.575C74.6673 87.325 75.0073 86.97 75.2573 86.51C75.5073 86.04 75.6323 85.495 75.6323 84.875ZM90.8181 84.575C90.8181 84.835 90.8031 85.11 90.7731 85.4H84.2031C84.2531 86.21 84.5281 86.845 85.0281 87.305C85.5381 87.755 86.1531 87.98 86.8731 87.98C87.4631 87.98 87.9531 87.845 88.3431 87.575C88.7431 87.295 89.0231 86.925 89.1831 86.465H90.6531C90.4331 87.255 89.9931 87.9 89.3331 88.4C88.6731 88.89 87.8531 89.135 86.8731 89.135C86.0931 89.135 85.3931 88.96 84.7731 88.61C84.1631 88.26 83.6831 87.765 83.3331 87.125C82.9831 86.475 82.8081 85.725 82.8081 84.875C82.8081 84.025 82.9781 83.28 83.3181 82.64C83.6581 82 84.1331 81.51 84.7431 81.17C85.3631 80.82 86.0731 80.645 86.8731 80.645C87.6531 80.645 88.3431 80.815 88.9431 81.155C89.5431 81.495 90.0031 81.965 90.3231 82.565C90.6531 83.155 90.8181 83.825 90.8181 84.575ZM89.4081 84.29C89.4081 83.77 89.2931 83.325 89.0631 82.955C88.8331 82.575 88.5181 82.29 88.1181 82.1C87.7281 81.9 87.2931 81.8 86.8131 81.8C86.1231 81.8 85.5331 82.02 85.0431 82.46C84.5631 82.9 84.2881 83.51 84.2181 84.29H89.4081ZM93.9848 77.9V89H92.6198V77.9H93.9848ZM97.0163 79.445C96.7563 79.445 96.5363 79.355 96.3563 79.175C96.1763 78.995 96.0863 78.775 96.0863 78.515C96.0863 78.255 96.1763 78.035 96.3563 77.855C96.5363 77.675 96.7563 77.585 97.0163 77.585C97.2663 77.585 97.4763 77.675 97.6463 77.855C97.8263 78.035 97.9163 78.255 97.9163 78.515C97.9163 78.775 97.8263 78.995 97.6463 79.175C97.4763 79.355 97.2663 79.445 97.0163 79.445ZM97.6763 80.78V89H96.3113V80.78H97.6763ZM101.668 81.905V86.75C101.668 87.15 101.753 87.435 101.923 87.605C102.093 87.765 102.388 87.845 102.808 87.845H103.813V89H102.583C101.823 89 101.253 88.825 100.873 88.475C100.493 88.125 100.303 87.55 100.303 86.75V81.905H99.2377V80.78H100.303V78.71H101.668V80.78H103.813V81.905H101.668ZM105.902 89.09C105.642 89.09 105.422 89 105.242 88.82C105.062 88.64 104.972 88.42 104.972 88.16C104.972 87.9 105.062 87.68 105.242 87.5C105.422 87.32 105.642 87.23 105.902 87.23C106.152 87.23 106.362 87.32 106.532 87.5C106.712 87.68 106.802 87.9 106.802 88.16C106.802 88.42 106.712 88.64 106.532 88.82C106.362 89 106.152 89.09 105.902 89.09ZM115.93 89.105C115.24 89.105 114.62 88.985 114.07 88.745C113.53 88.495 113.105 88.155 112.795 87.725C112.485 87.285 112.325 86.78 112.315 86.21H113.77C113.82 86.7 114.02 87.115 114.37 87.455C114.73 87.785 115.25 87.95 115.93 87.95C116.58 87.95 117.09 87.79 117.46 87.47C117.84 87.14 118.03 86.72 118.03 86.21C118.03 85.81 117.92 85.485 117.7 85.235C117.48 84.985 117.205 84.795 116.875 84.665C116.545 84.535 116.1 84.395 115.54 84.245C114.85 84.065 114.295 83.885 113.875 83.705C113.465 83.525 113.11 83.245 112.81 82.865C112.52 82.475 112.375 81.955 112.375 81.305C112.375 80.735 112.52 80.23 112.81 79.79C113.1 79.35 113.505 79.01 114.025 78.77C114.555 78.53 115.16 78.41 115.84 78.41C116.82 78.41 117.62 78.655 118.24 79.145C118.87 79.635 119.225 80.285 119.305 81.095H117.805C117.755 80.695 117.545 80.345 117.175 80.045C116.805 79.735 116.315 79.58 115.705 79.58C115.135 79.58 114.67 79.73 114.31 80.03C113.95 80.32 113.77 80.73 113.77 81.26C113.77 81.64 113.875 81.95 114.085 82.19C114.305 82.43 114.57 82.615 114.88 82.745C115.2 82.865 115.645 83.005 116.215 83.165C116.905 83.355 117.46 83.545 117.88 83.735C118.3 83.915 118.66 84.2 118.96 84.59C119.26 84.97 119.41 85.49 119.41 86.15C119.41 86.66 119.275 87.14 119.005 87.59C118.735 88.04 118.335 88.405 117.805 88.685C117.275 88.965 116.65 89.105 115.93 89.105ZM128.709 80.78V89H127.344V87.785C127.084 88.205 126.719 88.535 126.249 88.775C125.789 89.005 125.279 89.12 124.719 89.12C124.079 89.12 123.504 88.99 122.994 88.73C122.484 88.46 122.079 88.06 121.779 87.53C121.489 87 121.344 86.355 121.344 85.595V80.78H122.694V85.415C122.694 86.225 122.899 86.85 123.309 87.29C123.719 87.72 124.279 87.935 124.989 87.935C125.719 87.935 126.294 87.71 126.714 87.26C127.134 86.81 127.344 86.155 127.344 85.295V80.78H128.709ZM133.923 89.135C133.293 89.135 132.728 89.03 132.228 88.82C131.728 88.6 131.333 88.3 131.043 87.92C130.753 87.53 130.593 87.085 130.563 86.585H131.973C132.013 86.995 132.203 87.33 132.543 87.59C132.893 87.85 133.348 87.98 133.908 87.98C134.428 87.98 134.838 87.865 135.138 87.635C135.438 87.405 135.588 87.115 135.588 86.765C135.588 86.405 135.428 86.14 135.108 85.97C134.788 85.79 134.293 85.615 133.623 85.445C133.013 85.285 132.513 85.125 132.123 84.965C131.743 84.795 131.413 84.55 131.133 84.23C130.863 83.9 130.728 83.47 130.728 82.94C130.728 82.52 130.853 82.135 131.103 81.785C131.353 81.435 131.708 81.16 132.168 80.96C132.628 80.75 133.153 80.645 133.743 80.645C134.653 80.645 135.388 80.875 135.948 81.335C136.508 81.795 136.808 82.425 136.848 83.225H135.483C135.453 82.795 135.278 82.45 134.958 82.19C134.648 81.93 134.228 81.8 133.698 81.8C133.208 81.8 132.818 81.905 132.528 82.115C132.238 82.325 132.093 82.6 132.093 82.94C132.093 83.21 132.178 83.435 132.348 83.615C132.528 83.785 132.748 83.925 133.008 84.035C133.278 84.135 133.648 84.25 134.118 84.38C134.708 84.54 135.188 84.7 135.558 84.86C135.928 85.01 136.243 85.24 136.503 85.55C136.773 85.86 136.913 86.265 136.923 86.765C136.923 87.215 136.798 87.62 136.548 87.98C136.298 88.34 135.943 88.625 135.483 88.835C135.033 89.035 134.513 89.135 133.923 89.135ZM140.215 82.295C140.485 81.825 140.885 81.435 141.415 81.125C141.955 80.805 142.58 80.645 143.29 80.645C144.02 80.645 144.68 80.82 145.27 81.17C145.87 81.52 146.34 82.015 146.68 82.655C147.02 83.285 147.19 84.02 147.19 84.86C147.19 85.69 147.02 86.43 146.68 87.08C146.34 87.73 145.87 88.235 145.27 88.595C144.68 88.955 144.02 89.135 143.29 89.135C142.59 89.135 141.97 88.98 141.43 88.67C140.9 88.35 140.495 87.955 140.215 87.485V92.9H138.85V80.78H140.215V82.295ZM145.795 84.86C145.795 84.24 145.67 83.7 145.42 83.24C145.17 82.78 144.83 82.43 144.4 82.19C143.98 81.95 143.515 81.83 143.005 81.83C142.505 81.83 142.04 81.955 141.61 82.205C141.19 82.445 140.85 82.8 140.59 83.27C140.34 83.73 140.215 84.265 140.215 84.875C140.215 85.495 140.34 86.04 140.59 86.51C140.85 86.97 141.19 87.325 141.61 87.575C142.04 87.815 142.505 87.935 143.005 87.935C143.515 87.935 143.98 87.815 144.4 87.575C144.83 87.325 145.17 86.97 145.42 86.51C145.67 86.04 145.795 85.49 145.795 84.86ZM156.487 84.575C156.487 84.835 156.472 85.11 156.442 85.4H149.872C149.922 86.21 150.197 86.845 150.697 87.305C151.207 87.755 151.822 87.98 152.542 87.98C153.132 87.98 153.622 87.845 154.012 87.575C154.412 87.295 154.692 86.925 154.852 86.465H156.322C156.102 87.255 155.662 87.9 155.002 88.4C154.342 88.89 153.522 89.135 152.542 89.135C151.762 89.135 151.062 88.96 150.442 88.61C149.832 88.26 149.352 87.765 149.002 87.125C148.652 86.475 148.477 85.725 148.477 84.875C148.477 84.025 148.647 83.28 148.987 82.64C149.327 82 149.802 81.51 150.412 81.17C151.032 80.82 151.742 80.645 152.542 80.645C153.322 80.645 154.012 80.815 154.612 81.155C155.212 81.495 155.672 81.965 155.992 82.565C156.322 83.155 156.487 83.825 156.487 84.575ZM155.077 84.29C155.077 83.77 154.962 83.325 154.732 82.955C154.502 82.575 154.187 82.29 153.787 82.1C153.397 81.9 152.962 81.8 152.482 81.8C151.792 81.8 151.202 82.02 150.712 82.46C150.232 82.9 149.957 83.51 149.887 84.29H155.077ZM162.294 80.63C163.294 80.63 164.104 80.935 164.724 81.545C165.344 82.145 165.654 83.015 165.654 84.155V89H164.304V84.35C164.304 83.53 164.099 82.905 163.689 82.475C163.279 82.035 162.719 81.815 162.009 81.815C161.289 81.815 160.714 82.04 160.284 82.49C159.864 82.94 159.654 83.595 159.654 84.455V89H158.289V80.78H159.654V81.95C159.924 81.53 160.289 81.205 160.749 80.975C161.219 80.745 161.734 80.63 162.294 80.63ZM167.374 84.86C167.374 84.02 167.544 83.285 167.884 82.655C168.224 82.015 168.689 81.52 169.279 81.17C169.879 80.82 170.549 80.645 171.289 80.645C171.929 80.645 172.524 80.795 173.074 81.095C173.624 81.385 174.044 81.77 174.334 82.25V77.9H175.714V89H174.334V87.455C174.064 87.945 173.664 88.35 173.134 88.67C172.604 88.98 171.984 89.135 171.274 89.135C170.544 89.135 169.879 88.955 169.279 88.595C168.689 88.235 168.224 87.73 167.884 87.08C167.544 86.43 167.374 85.69 167.374 84.86ZM174.334 84.875C174.334 84.255 174.209 83.715 173.959 83.255C173.709 82.795 173.369 82.445 172.939 82.205C172.519 81.955 172.054 81.83 171.544 81.83C171.034 81.83 170.569 81.95 170.149 82.19C169.729 82.43 169.394 82.78 169.144 83.24C168.894 83.7 168.769 84.24 168.769 84.86C168.769 85.49 168.894 86.04 169.144 86.51C169.394 86.97 169.729 87.325 170.149 87.575C170.569 87.815 171.034 87.935 171.544 87.935C172.054 87.935 172.519 87.815 172.939 87.575C173.369 87.325 173.709 86.97 173.959 86.51C174.209 86.04 174.334 85.495 174.334 84.875ZM178.725 79.445C178.465 79.445 178.245 79.355 178.065 79.175C177.885 78.995 177.795 78.775 177.795 78.515C177.795 78.255 177.885 78.035 178.065 77.855C178.245 77.675 178.465 77.585 178.725 77.585C178.975 77.585 179.185 77.675 179.355 77.855C179.535 78.035 179.625 78.255 179.625 78.515C179.625 78.775 179.535 78.995 179.355 79.175C179.185 79.355 178.975 79.445 178.725 79.445ZM179.385 80.78V89H178.02V80.78H179.385ZM184.622 89.135C183.992 89.135 183.427 89.03 182.927 88.82C182.427 88.6 182.032 88.3 181.742 87.92C181.452 87.53 181.292 87.085 181.262 86.585H182.672C182.712 86.995 182.902 87.33 183.242 87.59C183.592 87.85 184.047 87.98 184.607 87.98C185.127 87.98 185.537 87.865 185.837 87.635C186.137 87.405 186.287 87.115 186.287 86.765C186.287 86.405 186.127 86.14 185.807 85.97C185.487 85.79 184.992 85.615 184.322 85.445C183.712 85.285 183.212 85.125 182.822 84.965C182.442 84.795 182.112 84.55 181.832 84.23C181.562 83.9 181.427 83.47 181.427 82.94C181.427 82.52 181.552 82.135 181.802 81.785C182.052 81.435 182.407 81.16 182.867 80.96C183.327 80.75 183.852 80.645 184.442 80.645C185.352 80.645 186.087 80.875 186.647 81.335C187.207 81.795 187.507 82.425 187.547 83.225H186.182C186.152 82.795 185.977 82.45 185.657 82.19C185.347 81.93 184.927 81.8 184.397 81.8C183.907 81.8 183.517 81.905 183.227 82.115C182.937 82.325 182.792 82.6 182.792 82.94C182.792 83.21 182.877 83.435 183.047 83.615C183.227 83.785 183.447 83.925 183.707 84.035C183.977 84.135 184.347 84.25 184.817 84.38C185.407 84.54 185.887 84.7 186.257 84.86C186.627 85.01 186.942 85.24 187.202 85.55C187.472 85.86 187.612 86.265 187.622 86.765C187.622 87.215 187.497 87.62 187.247 87.98C186.997 88.34 186.642 88.625 186.182 88.835C185.732 89.035 185.212 89.135 184.622 89.135ZM192.459 89.135C191.829 89.135 191.264 89.03 190.764 88.82C190.264 88.6 189.869 88.3 189.579 87.92C189.289 87.53 189.129 87.085 189.099 86.585H190.509C190.549 86.995 190.739 87.33 191.079 87.59C191.429 87.85 191.884 87.98 192.444 87.98C192.964 87.98 193.374 87.865 193.674 87.635C193.974 87.405 194.124 87.115 194.124 86.765C194.124 86.405 193.964 86.14 193.644 85.97C193.324 85.79 192.829 85.615 192.159 85.445C191.549 85.285 191.049 85.125 190.659 84.965C190.279 84.795 189.949 84.55 189.669 84.23C189.399 83.9 189.264 83.47 189.264 82.94C189.264 82.52 189.389 82.135 189.639 81.785C189.889 81.435 190.244 81.16 190.704 80.96C191.164 80.75 191.689 80.645 192.279 80.645C193.189 80.645 193.924 80.875 194.484 81.335C195.044 81.795 195.344 82.425 195.384 83.225H194.019C193.989 82.795 193.814 82.45 193.494 82.19C193.184 81.93 192.764 81.8 192.234 81.8C191.744 81.8 191.354 81.905 191.064 82.115C190.774 82.325 190.629 82.6 190.629 82.94C190.629 83.21 190.714 83.435 190.884 83.615C191.064 83.785 191.284 83.925 191.544 84.035C191.814 84.135 192.184 84.25 192.654 84.38C193.244 84.54 193.724 84.7 194.094 84.86C194.464 85.01 194.779 85.24 195.039 85.55C195.309 85.86 195.449 86.265 195.459 86.765C195.459 87.215 195.334 87.62 195.084 87.98C194.834 88.34 194.479 88.625 194.019 88.835C193.569 89.035 193.049 89.135 192.459 89.135ZM204.885 84.575C204.885 84.835 204.87 85.11 204.84 85.4H198.27C198.32 86.21 198.595 86.845 199.095 87.305C199.605 87.755 200.22 87.98 200.94 87.98C201.53 87.98 202.02 87.845 202.41 87.575C202.81 87.295 203.09 86.925 203.25 86.465H204.72C204.5 87.255 204.06 87.9 203.4 88.4C202.74 88.89 201.92 89.135 200.94 89.135C200.16 89.135 199.46 88.96 198.84 88.61C198.23 88.26 197.75 87.765 197.4 87.125C197.05 86.475 196.875 85.725 196.875 84.875C196.875 84.025 197.045 83.28 197.385 82.64C197.725 82 198.2 81.51 198.81 81.17C199.43 80.82 200.14 80.645 200.94 80.645C201.72 80.645 202.41 80.815 203.01 81.155C203.61 81.495 204.07 81.965 204.39 82.565C204.72 83.155 204.885 83.825 204.885 84.575ZM203.475 84.29C203.475 83.77 203.36 83.325 203.13 82.955C202.9 82.575 202.585 82.29 202.185 82.1C201.795 81.9 201.36 81.8 200.88 81.8C200.19 81.8 199.6 82.02 199.11 82.46C198.63 82.9 198.355 83.51 198.285 84.29H203.475ZM213.746 87.74L216.296 80.78H217.751L214.526 89H212.936L209.711 80.78H211.181L213.746 87.74ZM218.584 84.86C218.584 84.02 218.754 83.285 219.094 82.655C219.434 82.015 219.899 81.52 220.489 81.17C221.089 80.82 221.754 80.645 222.484 80.645C223.204 80.645 223.829 80.8 224.359 81.11C224.889 81.42 225.284 81.81 225.544 82.28V80.78H226.924V89H225.544V87.47C225.274 87.95 224.869 88.35 224.329 88.67C223.799 88.98 223.179 89.135 222.469 89.135C221.739 89.135 221.079 88.955 220.489 88.595C219.899 88.235 219.434 87.73 219.094 87.08C218.754 86.43 218.584 85.69 218.584 84.86ZM225.544 84.875C225.544 84.255 225.419 83.715 225.169 83.255C224.919 82.795 224.579 82.445 224.149 82.205C223.729 81.955 223.264 81.83 222.754 81.83C222.244 81.83 221.779 81.95 221.359 82.19C220.939 82.43 220.604 82.78 220.354 83.24C220.104 83.7 219.979 84.24 219.979 84.86C219.979 85.49 220.104 86.04 220.354 86.51C220.604 86.97 220.939 87.325 221.359 87.575C221.779 87.815 222.244 87.935 222.754 87.935C223.264 87.935 223.729 87.815 224.149 87.575C224.579 87.325 224.919 86.97 225.169 86.51C225.419 86.04 225.544 85.495 225.544 84.875ZM230.596 82.115C230.836 81.645 231.176 81.28 231.616 81.02C232.066 80.76 232.611 80.63 233.251 80.63V82.04H232.891C231.361 82.04 230.596 82.87 230.596 84.53V89H229.231V80.78H230.596V82.115ZM235.532 79.445C235.272 79.445 235.052 79.355 234.872 79.175C234.692 78.995 234.602 78.775 234.602 78.515C234.602 78.255 234.692 78.035 234.872 77.855C235.052 77.675 235.272 77.585 235.532 77.585C235.782 77.585 235.992 77.675 236.162 77.855C236.342 78.035 236.432 78.255 236.432 78.515C236.432 78.775 236.342 78.995 236.162 79.175C235.992 79.355 235.782 79.445 235.532 79.445ZM236.192 80.78V89H234.827V80.78H236.192ZM245.808 80.78V89H244.443V87.785C244.183 88.205 243.818 88.535 243.348 88.775C242.888 89.005 242.378 89.12 241.818 89.12C241.178 89.12 240.603 88.99 240.093 88.73C239.583 88.46 239.178 88.06 238.878 87.53C238.588 87 238.443 86.355 238.443 85.595V80.78H239.793V85.415C239.793 86.225 239.998 86.85 240.408 87.29C240.818 87.72 241.378 87.935 242.088 87.935C242.818 87.935 243.393 87.71 243.813 87.26C244.233 86.81 244.443 86.155 244.443 85.295V80.78H245.808ZM251.023 89.135C250.393 89.135 249.828 89.03 249.328 88.82C248.828 88.6 248.433 88.3 248.143 87.92C247.853 87.53 247.693 87.085 247.663 86.585H249.073C249.113 86.995 249.303 87.33 249.643 87.59C249.993 87.85 250.448 87.98 251.008 87.98C251.528 87.98 251.938 87.865 252.238 87.635C252.538 87.405 252.688 87.115 252.688 86.765C252.688 86.405 252.528 86.14 252.208 85.97C251.888 85.79 251.393 85.615 250.723 85.445C250.113 85.285 249.613 85.125 249.223 84.965C248.843 84.795 248.513 84.55 248.233 84.23C247.963 83.9 247.828 83.47 247.828 82.94C247.828 82.52 247.953 82.135 248.203 81.785C248.453 81.435 248.808 81.16 249.268 80.96C249.728 80.75 250.253 80.645 250.843 80.645C251.753 80.645 252.488 80.875 253.048 81.335C253.608 81.795 253.908 82.425 253.948 83.225H252.583C252.553 82.795 252.378 82.45 252.058 82.19C251.748 81.93 251.328 81.8 250.798 81.8C250.308 81.8 249.918 81.905 249.628 82.115C249.338 82.325 249.193 82.6 249.193 82.94C249.193 83.21 249.278 83.435 249.448 83.615C249.628 83.785 249.848 83.925 250.108 84.035C250.378 84.135 250.748 84.25 251.218 84.38C251.808 84.54 252.288 84.7 252.658 84.86C253.028 85.01 253.343 85.24 253.603 85.55C253.873 85.86 254.013 86.265 254.023 86.765C254.023 87.215 253.898 87.62 253.648 87.98C253.398 88.34 253.043 88.625 252.583 88.835C252.133 89.035 251.613 89.135 251.023 89.135ZM267.449 84.575C267.449 84.835 267.434 85.11 267.404 85.4H260.834C260.884 86.21 261.159 86.845 261.659 87.305C262.169 87.755 262.784 87.98 263.504 87.98C264.094 87.98 264.584 87.845 264.974 87.575C265.374 87.295 265.654 86.925 265.814 86.465H267.284C267.064 87.255 266.624 87.9 265.964 88.4C265.304 88.89 264.484 89.135 263.504 89.135C262.724 89.135 262.024 88.96 261.404 88.61C260.794 88.26 260.314 87.765 259.964 87.125C259.614 86.475 259.439 85.725 259.439 84.875C259.439 84.025 259.609 83.28 259.949 82.64C260.289 82 260.764 81.51 261.374 81.17C261.994 80.82 262.704 80.645 263.504 80.645C264.284 80.645 264.974 80.815 265.574 81.155C266.174 81.495 266.634 81.965 266.954 82.565C267.284 83.155 267.449 83.825 267.449 84.575ZM266.039 84.29C266.039 83.77 265.924 83.325 265.694 82.955C265.464 82.575 265.149 82.29 264.749 82.1C264.359 81.9 263.924 81.8 263.444 81.8C262.754 81.8 262.164 82.02 261.674 82.46C261.194 82.9 260.919 83.51 260.849 84.29H266.039ZM273.256 80.63C274.256 80.63 275.066 80.935 275.686 81.545C276.306 82.145 276.616 83.015 276.616 84.155V89H275.266V84.35C275.266 83.53 275.061 82.905 274.651 82.475C274.241 82.035 273.681 81.815 272.971 81.815C272.251 81.815 271.676 82.04 271.246 82.49C270.826 82.94 270.616 83.595 270.616 84.455V89H269.251V80.78H270.616V81.95C270.886 81.53 271.251 81.205 271.711 80.975C272.181 80.745 272.696 80.63 273.256 80.63ZM279.55 79.445C279.29 79.445 279.07 79.355 278.89 79.175C278.71 78.995 278.62 78.775 278.62 78.515C278.62 78.255 278.71 78.035 278.89 77.855C279.07 77.675 279.29 77.585 279.55 77.585C279.8 77.585 280.01 77.675 280.18 77.855C280.36 78.035 280.45 78.255 280.45 78.515C280.45 78.775 280.36 78.995 280.18 79.175C280.01 79.355 279.8 79.445 279.55 79.445ZM280.21 80.78V89H278.845V80.78H280.21ZM292.422 80.63C293.062 80.63 293.632 80.765 294.132 81.035C294.632 81.295 295.027 81.69 295.317 82.22C295.607 82.75 295.752 83.395 295.752 84.155V89H294.402V84.35C294.402 83.53 294.197 82.905 293.787 82.475C293.387 82.035 292.842 81.815 292.152 81.815C291.442 81.815 290.877 82.045 290.457 82.505C290.037 82.955 289.827 83.61 289.827 84.47V89H288.477V84.35C288.477 83.53 288.272 82.905 287.862 82.475C287.462 82.035 286.917 81.815 286.227 81.815C285.517 81.815 284.952 82.045 284.532 82.505C284.112 82.955 283.902 83.61 283.902 84.47V89H282.537V80.78H283.902V81.965C284.172 81.535 284.532 81.205 284.982 80.975C285.442 80.745 285.947 80.63 286.497 80.63C287.187 80.63 287.797 80.785 288.327 81.095C288.857 81.405 289.252 81.86 289.512 82.46C289.742 81.88 290.122 81.43 290.652 81.11C291.182 80.79 291.772 80.63 292.422 80.63ZM302.695 79.445C302.435 79.445 302.215 79.355 302.035 79.175C301.855 78.995 301.765 78.775 301.765 78.515C301.765 78.255 301.855 78.035 302.035 77.855C302.215 77.675 302.435 77.585 302.695 77.585C302.945 77.585 303.155 77.675 303.325 77.855C303.505 78.035 303.595 78.255 303.595 78.515C303.595 78.775 303.505 78.995 303.325 79.175C303.155 79.355 302.945 79.445 302.695 79.445ZM303.355 80.78V89H301.99V80.78H303.355ZM309.686 80.63C310.686 80.63 311.496 80.935 312.116 81.545C312.736 82.145 313.046 83.015 313.046 84.155V89H311.696V84.35C311.696 83.53 311.491 82.905 311.081 82.475C310.671 82.035 310.111 81.815 309.401 81.815C308.681 81.815 308.106 82.04 307.676 82.49C307.256 82.94 307.046 83.595 307.046 84.455V89H305.681V80.78H307.046V81.95C307.316 81.53 307.681 81.205 308.141 80.975C308.611 80.745 309.126 80.63 309.686 80.63ZM326.775 84.575C326.775 84.835 326.76 85.11 326.73 85.4H320.16C320.21 86.21 320.485 86.845 320.985 87.305C321.495 87.755 322.11 87.98 322.83 87.98C323.42 87.98 323.91 87.845 324.3 87.575C324.7 87.295 324.98 86.925 325.14 86.465H326.61C326.39 87.255 325.95 87.9 325.29 88.4C324.63 88.89 323.81 89.135 322.83 89.135C322.05 89.135 321.35 88.96 320.73 88.61C320.12 88.26 319.64 87.765 319.29 87.125C318.94 86.475 318.765 85.725 318.765 84.875C318.765 84.025 318.935 83.28 319.275 82.64C319.615 82 320.09 81.51 320.7 81.17C321.32 80.82 322.03 80.645 322.83 80.645C323.61 80.645 324.3 80.815 324.9 81.155C325.5 81.495 325.96 81.965 326.28 82.565C326.61 83.155 326.775 83.825 326.775 84.575ZM325.365 84.29C325.365 83.77 325.25 83.325 325.02 82.955C324.79 82.575 324.475 82.29 324.075 82.1C323.685 81.9 323.25 81.8 322.77 81.8C322.08 81.8 321.49 82.02 321 82.46C320.52 82.9 320.245 83.51 320.175 84.29H325.365ZM329.942 82.115C330.182 81.645 330.522 81.28 330.962 81.02C331.412 80.76 331.957 80.63 332.597 80.63V82.04H332.237C330.707 82.04 329.942 82.87 329.942 84.53V89H328.577V80.78H329.942V82.115ZM337.758 89.135C336.988 89.135 336.288 88.96 335.658 88.61C335.038 88.26 334.548 87.765 334.188 87.125C333.838 86.475 333.663 85.725 333.663 84.875C333.663 84.035 333.843 83.295 334.203 82.655C334.573 82.005 335.073 81.51 335.703 81.17C336.333 80.82 337.038 80.645 337.818 80.645C338.598 80.645 339.303 80.82 339.933 81.17C340.563 81.51 341.058 82 341.418 82.64C341.788 83.28 341.973 84.025 341.973 84.875C341.973 85.725 341.783 86.475 341.403 87.125C341.033 87.765 340.528 88.26 339.888 88.61C339.248 88.96 338.538 89.135 337.758 89.135ZM337.758 87.935C338.248 87.935 338.708 87.82 339.138 87.59C339.568 87.36 339.913 87.015 340.173 86.555C340.443 86.095 340.578 85.535 340.578 84.875C340.578 84.215 340.448 83.655 340.188 83.195C339.928 82.735 339.588 82.395 339.168 82.175C338.748 81.945 338.293 81.83 337.803 81.83C337.303 81.83 336.843 81.945 336.423 82.175C336.013 82.395 335.683 82.735 335.433 83.195C335.183 83.655 335.058 84.215 335.058 84.875C335.058 85.545 335.178 86.11 335.418 86.57C335.668 87.03 335.998 87.375 336.408 87.605C336.818 87.825 337.268 87.935 337.758 87.935ZM346.677 89.135C346.047 89.135 345.482 89.03 344.982 88.82C344.482 88.6 344.087 88.3 343.797 87.92C343.507 87.53 343.347 87.085 343.317 86.585H344.727C344.767 86.995 344.957 87.33 345.297 87.59C345.647 87.85 346.102 87.98 346.662 87.98C347.182 87.98 347.592 87.865 347.892 87.635C348.192 87.405 348.342 87.115 348.342 86.765C348.342 86.405 348.182 86.14 347.862 85.97C347.542 85.79 347.047 85.615 346.377 85.445C345.767 85.285 345.267 85.125 344.877 84.965C344.497 84.795 344.167 84.55 343.887 84.23C343.617 83.9 343.482 83.47 343.482 82.94C343.482 82.52 343.607 82.135 343.857 81.785C344.107 81.435 344.462 81.16 344.922 80.96C345.382 80.75 345.907 80.645 346.497 80.645C347.407 80.645 348.142 80.875 348.702 81.335C349.262 81.795 349.562 82.425 349.602 83.225H348.237C348.207 82.795 348.032 82.45 347.712 82.19C347.402 81.93 346.982 81.8 346.452 81.8C345.962 81.8 345.572 81.905 345.282 82.115C344.992 82.325 344.847 82.6 344.847 82.94C344.847 83.21 344.932 83.435 345.102 83.615C345.282 83.785 345.502 83.925 345.762 84.035C346.032 84.135 346.402 84.25 346.872 84.38C347.462 84.54 347.942 84.7 348.312 84.86C348.682 85.01 348.997 85.24 349.257 85.55C349.527 85.86 349.667 86.265 349.677 86.765C349.677 87.215 349.552 87.62 349.302 87.98C349.052 88.34 348.697 88.625 348.237 88.835C347.787 89.035 347.267 89.135 346.677 89.135ZM8.655 108.575C8.655 108.835 8.64 109.11 8.61 109.4H2.04C2.09 110.21 2.365 110.845 2.865 111.305C3.375 111.755 3.99 111.98 4.71 111.98C5.3 111.98 5.79 111.845 6.18 111.575C6.58 111.295 6.86 110.925 7.02 110.465H8.49C8.27 111.255 7.83 111.9 7.17 112.4C6.51 112.89 5.69 113.135 4.71 113.135C3.93 113.135 3.23 112.96 2.61 112.61C2 112.26 1.52 111.765 1.17 111.125C0.82 110.475 0.645 109.725 0.645 108.875C0.645 108.025 0.815 107.28 1.155 106.64C1.495 106 1.97 105.51 2.58 105.17C3.2 104.82 3.91 104.645 4.71 104.645C5.49 104.645 6.18 104.815 6.78 105.155C7.38 105.495 7.84 105.965 8.16 106.565C8.49 107.155 8.655 107.825 8.655 108.575ZM7.245 108.29C7.245 107.77 7.13 107.325 6.9 106.955C6.67 106.575 6.355 106.29 5.955 106.1C5.565 105.9 5.13 105.8 4.65 105.8C3.96 105.8 3.37 106.02 2.88 106.46C2.4 106.9 2.125 107.51 2.055 108.29H7.245ZM11.8218 101.9V113H10.4568V101.9H11.8218ZM21.6482 108.575C21.6482 108.835 21.6332 109.11 21.6032 109.4H15.0332C15.0832 110.21 15.3582 110.845 15.8582 111.305C16.3682 111.755 16.9832 111.98 17.7032 111.98C18.2932 111.98 18.7832 111.845 19.1732 111.575C19.5732 111.295 19.8532 110.925 20.0132 110.465H21.4832C21.2632 111.255 20.8232 111.9 20.1632 112.4C19.5032 112.89 18.6832 113.135 17.7032 113.135C16.9232 113.135 16.2232 112.96 15.6032 112.61C14.9932 112.26 14.5132 111.765 14.1632 111.125C13.8132 110.475 13.6382 109.725 13.6382 108.875C13.6382 108.025 13.8082 107.28 14.1482 106.64C14.4882 106 14.9632 105.51 15.5732 105.17C16.1932 104.82 16.9032 104.645 17.7032 104.645C18.4832 104.645 19.1732 104.815 19.7732 105.155C20.3732 105.495 20.8332 105.965 21.1532 106.565C21.4832 107.155 21.6482 107.825 21.6482 108.575ZM20.2382 108.29C20.2382 107.77 20.1232 107.325 19.8932 106.955C19.6632 106.575 19.3482 106.29 18.9482 106.1C18.5582 105.9 18.1232 105.8 17.6432 105.8C16.9532 105.8 16.3632 106.02 15.8732 106.46C15.3932 106.9 15.1182 107.51 15.0482 108.29H20.2382ZM33.3349 104.63C33.9749 104.63 34.5449 104.765 35.0449 105.035C35.5449 105.295 35.9399 105.69 36.2299 106.22C36.5199 106.75 36.6649 107.395 36.6649 108.155V113H35.3149V108.35C35.3149 107.53 35.1099 106.905 34.6999 106.475C34.2999 106.035 33.7549 105.815 33.0649 105.815C32.3549 105.815 31.7899 106.045 31.3699 106.505C30.9499 106.955 30.7399 107.61 30.7399 108.47V113H29.3899V108.35C29.3899 107.53 29.1849 106.905 28.7749 106.475C28.3749 106.035 27.8299 105.815 27.1399 105.815C26.4299 105.815 25.8649 106.045 25.4449 106.505C25.0249 106.955 24.8149 107.61 24.8149 108.47V113H23.4499V104.78H24.8149V105.965C25.0849 105.535 25.4449 105.205 25.8949 104.975C26.3549 104.745 26.8599 104.63 27.4099 104.63C28.0999 104.63 28.7099 104.785 29.2399 105.095C29.7699 105.405 30.1649 105.86 30.4249 106.46C30.6549 105.88 31.0349 105.43 31.5649 105.11C32.0949 104.79 32.6849 104.63 33.3349 104.63ZM46.404 108.575C46.404 108.835 46.389 109.11 46.359 109.4H39.789C39.839 110.21 40.114 110.845 40.614 111.305C41.124 111.755 41.739 111.98 42.459 111.98C43.049 111.98 43.539 111.845 43.929 111.575C44.329 111.295 44.609 110.925 44.769 110.465H46.239C46.019 111.255 45.579 111.9 44.919 112.4C44.259 112.89 43.439 113.135 42.459 113.135C41.679 113.135 40.979 112.96 40.359 112.61C39.749 112.26 39.269 111.765 38.919 111.125C38.569 110.475 38.394 109.725 38.394 108.875C38.394 108.025 38.564 107.28 38.904 106.64C39.244 106 39.719 105.51 40.329 105.17C40.949 104.82 41.659 104.645 42.459 104.645C43.239 104.645 43.929 104.815 44.529 105.155C45.129 105.495 45.589 105.965 45.909 106.565C46.239 107.155 46.404 107.825 46.404 108.575ZM44.994 108.29C44.994 107.77 44.879 107.325 44.649 106.955C44.419 106.575 44.104 106.29 43.704 106.1C43.314 105.9 42.879 105.8 42.399 105.8C41.709 105.8 41.119 106.02 40.629 106.46C40.149 106.9 39.874 107.51 39.804 108.29H44.994ZM52.2108 104.63C53.2108 104.63 54.0208 104.935 54.6408 105.545C55.2608 106.145 55.5708 107.015 55.5708 108.155V113H54.2208V108.35C54.2208 107.53 54.0158 106.905 53.6058 106.475C53.1958 106.035 52.6358 105.815 51.9258 105.815C51.2058 105.815 50.6308 106.04 50.2008 106.49C49.7808 106.94 49.5708 107.595 49.5708 108.455V113H48.2058V104.78H49.5708V105.95C49.8408 105.53 50.2058 105.205 50.6658 104.975C51.1358 104.745 51.6508 104.63 52.2108 104.63ZM59.4655 105.905V110.75C59.4655 111.15 59.5505 111.435 59.7205 111.605C59.8905 111.765 60.1855 111.845 60.6055 111.845H61.6105V113H60.3805C59.6205 113 59.0505 112.825 58.6705 112.475C58.2905 112.125 58.1005 111.55 58.1005 110.75V105.905H57.0355V104.78H58.1005V102.71H59.4655V104.78H61.6105V105.905H59.4655ZM70.5544 104.78V113H69.1894V111.785C68.9294 112.205 68.5644 112.535 68.0944 112.775C67.6344 113.005 67.1244 113.12 66.5644 113.12C65.9244 113.12 65.3494 112.99 64.8394 112.73C64.3294 112.46 63.9244 112.06 63.6244 111.53C63.3344 111 63.1894 110.355 63.1894 109.595V104.78H64.5394V109.415C64.5394 110.225 64.7444 110.85 65.1544 111.29C65.5644 111.72 66.1244 111.935 66.8344 111.935C67.5644 111.935 68.1394 111.71 68.5594 111.26C68.9794 110.81 69.1894 110.155 69.1894 109.295V104.78H70.5544ZM82.7441 104.63C83.3841 104.63 83.9541 104.765 84.4541 105.035C84.9541 105.295 85.3491 105.69 85.6391 106.22C85.9291 106.75 86.0741 107.395 86.0741 108.155V113H84.7241V108.35C84.7241 107.53 84.5191 106.905 84.1091 106.475C83.7091 106.035 83.1641 105.815 82.4741 105.815C81.7641 105.815 81.1991 106.045 80.7791 106.505C80.3591 106.955 80.1491 107.61 80.1491 108.47V113H78.7991V108.35C78.7991 107.53 78.5941 106.905 78.1841 106.475C77.7841 106.035 77.2391 105.815 76.5491 105.815C75.8391 105.815 75.2741 106.045 74.8541 106.505C74.4341 106.955 74.2241 107.61 74.2241 108.47V113H72.8591V104.78H74.2241V105.965C74.4941 105.535 74.8541 105.205 75.3041 104.975C75.7641 104.745 76.2691 104.63 76.8191 104.63C77.5091 104.63 78.1191 104.785 78.6491 105.095C79.1791 105.405 79.5741 105.86 79.8341 106.46C80.0641 105.88 80.4441 105.43 80.9741 105.11C81.5041 104.79 82.0941 104.63 82.7441 104.63ZM93.9772 105.905V110.75C93.9772 111.15 94.0622 111.435 94.2322 111.605C94.4022 111.765 94.6972 111.845 95.1172 111.845H96.1222V113H94.8922C94.1322 113 93.5622 112.825 93.1822 112.475C92.8022 112.125 92.6122 111.55 92.6122 110.75V105.905H91.5472V104.78H92.6122V102.71H93.9772V104.78H96.1222V105.905H93.9772ZM99.1411 106.115C99.3811 105.645 99.7211 105.28 100.161 105.02C100.611 104.76 101.156 104.63 101.796 104.63V106.04H101.436C99.9061 106.04 99.1411 106.87 99.1411 108.53V113H97.7761V104.78H99.1411V106.115ZM104.077 103.445C103.817 103.445 103.597 103.355 103.417 103.175C103.237 102.995 103.147 102.775 103.147 102.515C103.147 102.255 103.237 102.035 103.417 101.855C103.597 101.675 103.817 101.585 104.077 101.585C104.327 101.585 104.537 101.675 104.707 101.855C104.887 102.035 104.977 102.255 104.977 102.515C104.977 102.775 104.887 102.995 104.707 103.175C104.537 103.355 104.327 103.445 104.077 103.445ZM104.737 104.78V113H103.372V104.78H104.737ZM109.973 113.135C109.343 113.135 108.778 113.03 108.278 112.82C107.778 112.6 107.383 112.3 107.093 111.92C106.803 111.53 106.643 111.085 106.613 110.585H108.023C108.063 110.995 108.253 111.33 108.593 111.59C108.943 111.85 109.398 111.98 109.958 111.98C110.478 111.98 110.888 111.865 111.188 111.635C111.488 111.405 111.638 111.115 111.638 110.765C111.638 110.405 111.478 110.14 111.158 109.97C110.838 109.79 110.343 109.615 109.673 109.445C109.063 109.285 108.563 109.125 108.173 108.965C107.793 108.795 107.463 108.55 107.183 108.23C106.913 107.9 106.778 107.47 106.778 106.94C106.778 106.52 106.903 106.135 107.153 105.785C107.403 105.435 107.758 105.16 108.218 104.96C108.678 104.75 109.203 104.645 109.793 104.645C110.703 104.645 111.438 104.875 111.998 105.335C112.558 105.795 112.858 106.425 112.898 107.225H111.533C111.503 106.795 111.328 106.45 111.008 106.19C110.698 105.93 110.278 105.8 109.748 105.8C109.258 105.8 108.868 105.905 108.578 106.115C108.288 106.325 108.143 106.6 108.143 106.94C108.143 107.21 108.228 107.435 108.398 107.615C108.578 107.785 108.798 107.925 109.058 108.035C109.328 108.135 109.698 108.25 110.168 108.38C110.758 108.54 111.238 108.7 111.608 108.86C111.978 109.01 112.293 109.24 112.553 109.55C112.823 109.86 112.963 110.265 112.973 110.765C112.973 111.215 112.848 111.62 112.598 111.98C112.348 112.34 111.993 112.625 111.533 112.835C111.083 113.035 110.563 113.135 109.973 113.135ZM116.565 105.905V110.75C116.565 111.15 116.65 111.435 116.82 111.605C116.99 111.765 117.285 111.845 117.705 111.845H118.71V113H117.48C116.72 113 116.15 112.825 115.77 112.475C115.39 112.125 115.2 111.55 115.2 110.75V105.905H114.135V104.78H115.2V102.71H116.565V104.78H118.71V105.905H116.565ZM121.069 103.445C120.809 103.445 120.589 103.355 120.409 103.175C120.229 102.995 120.139 102.775 120.139 102.515C120.139 102.255 120.229 102.035 120.409 101.855C120.589 101.675 120.809 101.585 121.069 101.585C121.319 101.585 121.529 101.675 121.699 101.855C121.879 102.035 121.969 102.255 121.969 102.515C121.969 102.775 121.879 102.995 121.699 103.175C121.529 103.355 121.319 103.445 121.069 103.445ZM121.729 104.78V113H120.364V104.78H121.729ZM123.545 108.86C123.545 108.02 123.715 107.285 124.055 106.655C124.395 106.015 124.86 105.52 125.45 105.17C126.05 104.82 126.72 104.645 127.46 104.645C128.17 104.645 128.79 104.805 129.32 105.125C129.86 105.435 130.255 105.82 130.505 106.28V104.78H131.885V116.9H130.505V111.485C130.245 111.945 129.845 112.335 129.305 112.655C128.765 112.975 128.135 113.135 127.415 113.135C126.695 113.135 126.04 112.955 125.45 112.595C124.86 112.235 124.395 111.73 124.055 111.08C123.715 110.43 123.545 109.69 123.545 108.86ZM130.505 108.875C130.505 108.255 130.38 107.715 130.13 107.255C129.88 106.795 129.54 106.445 129.11 106.205C128.69 105.955 128.225 105.83 127.715 105.83C127.205 105.83 126.74 105.95 126.32 106.19C125.9 106.43 125.565 106.78 125.315 107.24C125.065 107.7 124.94 108.24 124.94 108.86C124.94 109.49 125.065 110.04 125.315 110.51C125.565 110.97 125.9 111.325 126.32 111.575C126.74 111.815 127.205 111.935 127.715 111.935C128.225 111.935 128.69 111.815 129.11 111.575C129.54 111.325 129.88 110.97 130.13 110.51C130.38 110.04 130.505 109.495 130.505 108.875ZM141.482 104.78V113H140.117V111.785C139.857 112.205 139.492 112.535 139.022 112.775C138.562 113.005 138.052 113.12 137.492 113.12C136.852 113.12 136.277 112.99 135.767 112.73C135.257 112.46 134.852 112.06 134.552 111.53C134.262 111 134.117 110.355 134.117 109.595V104.78H135.467V109.415C135.467 110.225 135.672 110.85 136.082 111.29C136.492 111.72 137.052 111.935 137.762 111.935C138.492 111.935 139.067 111.71 139.487 111.26C139.907 110.81 140.117 110.155 140.117 109.295V104.78H141.482ZM151.287 108.575C151.287 108.835 151.272 109.11 151.242 109.4H144.672C144.722 110.21 144.997 110.845 145.497 111.305C146.007 111.755 146.622 111.98 147.342 111.98C147.932 111.98 148.422 111.845 148.812 111.575C149.212 111.295 149.492 110.925 149.652 110.465H151.122C150.902 111.255 150.462 111.9 149.802 112.4C149.142 112.89 148.322 113.135 147.342 113.135C146.562 113.135 145.862 112.96 145.242 112.61C144.632 112.26 144.152 111.765 143.802 111.125C143.452 110.475 143.277 109.725 143.277 108.875C143.277 108.025 143.447 107.28 143.787 106.64C144.127 106 144.602 105.51 145.212 105.17C145.832 104.82 146.542 104.645 147.342 104.645C148.122 104.645 148.812 104.815 149.412 105.155C150.012 105.495 150.472 105.965 150.792 106.565C151.122 107.155 151.287 107.825 151.287 108.575ZM149.877 108.29C149.877 107.77 149.762 107.325 149.532 106.955C149.302 106.575 148.987 106.29 148.587 106.1C148.197 105.9 147.762 105.8 147.282 105.8C146.592 105.8 146.002 106.02 145.512 106.46C145.032 106.9 144.757 107.51 144.687 108.29H149.877ZM153.524 113.09C153.264 113.09 153.044 113 152.864 112.82C152.684 112.64 152.594 112.42 152.594 112.16C152.594 111.9 152.684 111.68 152.864 111.5C153.044 111.32 153.264 111.23 153.524 111.23C153.774 111.23 153.984 111.32 154.154 111.5C154.334 111.68 154.424 111.9 154.424 112.16C154.424 112.42 154.334 112.64 154.154 112.82C153.984 113 153.774 113.09 153.524 113.09ZM163.492 102.545C164.632 102.545 165.617 102.76 166.447 103.19C167.287 103.61 167.927 104.215 168.367 105.005C168.817 105.795 169.042 106.725 169.042 107.795C169.042 108.865 168.817 109.795 168.367 110.585C167.927 111.365 167.287 111.965 166.447 112.385C165.617 112.795 164.632 113 163.492 113H160.237V102.545H163.492ZM163.492 111.875C164.842 111.875 165.872 111.52 166.582 110.81C167.292 110.09 167.647 109.085 167.647 107.795C167.647 106.495 167.287 105.48 166.567 104.75C165.857 104.02 164.832 103.655 163.492 103.655H161.602V111.875H163.492ZM178.133 104.78V113H176.768V111.785C176.508 112.205 176.143 112.535 175.673 112.775C175.213 113.005 174.703 113.12 174.143 113.12C173.503 113.12 172.928 112.99 172.418 112.73C171.908 112.46 171.503 112.06 171.203 111.53C170.913 111 170.768 110.355 170.768 109.595V104.78H172.118V109.415C172.118 110.225 172.323 110.85 172.733 111.29C173.143 111.72 173.703 111.935 174.413 111.935C175.143 111.935 175.718 111.71 176.138 111.26C176.558 110.81 176.768 110.155 176.768 109.295V104.78H178.133ZM181.142 103.445C180.882 103.445 180.662 103.355 180.482 103.175C180.302 102.995 180.212 102.775 180.212 102.515C180.212 102.255 180.302 102.035 180.482 101.855C180.662 101.675 180.882 101.585 181.142 101.585C181.392 101.585 181.602 101.675 181.772 101.855C181.952 102.035 182.042 102.255 182.042 102.515C182.042 102.775 181.952 102.995 181.772 103.175C181.602 103.355 181.392 103.445 181.142 103.445ZM181.802 104.78V113H180.437V104.78H181.802ZM187.039 113.135C186.409 113.135 185.844 113.03 185.344 112.82C184.844 112.6 184.449 112.3 184.159 111.92C183.869 111.53 183.709 111.085 183.679 110.585H185.089C185.129 110.995 185.319 111.33 185.659 111.59C186.009 111.85 186.464 111.98 187.024 111.98C187.544 111.98 187.954 111.865 188.254 111.635C188.554 111.405 188.704 111.115 188.704 110.765C188.704 110.405 188.544 110.14 188.224 109.97C187.904 109.79 187.409 109.615 186.739 109.445C186.129 109.285 185.629 109.125 185.239 108.965C184.859 108.795 184.529 108.55 184.249 108.23C183.979 107.9 183.844 107.47 183.844 106.94C183.844 106.52 183.969 106.135 184.219 105.785C184.469 105.435 184.824 105.16 185.284 104.96C185.744 104.75 186.269 104.645 186.859 104.645C187.769 104.645 188.504 104.875 189.064 105.335C189.624 105.795 189.924 106.425 189.964 107.225H188.599C188.569 106.795 188.394 106.45 188.074 106.19C187.764 105.93 187.344 105.8 186.814 105.8C186.324 105.8 185.934 105.905 185.644 106.115C185.354 106.325 185.209 106.6 185.209 106.94C185.209 107.21 185.294 107.435 185.464 107.615C185.644 107.785 185.864 107.925 186.124 108.035C186.394 108.135 186.764 108.25 187.234 108.38C187.824 108.54 188.304 108.7 188.674 108.86C189.044 109.01 189.359 109.24 189.619 109.55C189.889 109.86 190.029 110.265 190.039 110.765C190.039 111.215 189.914 111.62 189.664 111.98C189.414 112.34 189.059 112.625 188.599 112.835C188.149 113.035 187.629 113.135 187.039 113.135ZM195.455 108.875C195.455 108.025 195.625 107.285 195.965 106.655C196.305 106.015 196.775 105.52 197.375 105.17C197.985 104.82 198.68 104.645 199.46 104.645C200.47 104.645 201.3 104.89 201.95 105.38C202.61 105.87 203.045 106.55 203.255 107.42H201.785C201.645 106.92 201.37 106.525 200.96 106.235C200.56 105.945 200.06 105.8 199.46 105.8C198.68 105.8 198.05 106.07 197.57 106.61C197.09 107.14 196.85 107.895 196.85 108.875C196.85 109.865 197.09 110.63 197.57 111.17C198.05 111.71 198.68 111.98 199.46 111.98C200.06 111.98 200.56 111.84 200.96 111.56C201.36 111.28 201.635 110.88 201.785 110.36H203.255C203.035 111.2 202.595 111.875 201.935 112.385C201.275 112.885 200.45 113.135 199.46 113.135C198.68 113.135 197.985 112.96 197.375 112.61C196.775 112.26 196.305 111.765 195.965 111.125C195.625 110.485 195.455 109.735 195.455 108.875ZM212.366 104.78V113H211.001V111.785C210.741 112.205 210.376 112.535 209.906 112.775C209.446 113.005 208.936 113.12 208.376 113.12C207.736 113.12 207.161 112.99 206.651 112.73C206.141 112.46 205.736 112.06 205.436 111.53C205.146 111 205.001 110.355 205.001 109.595V104.78H206.351V109.415C206.351 110.225 206.556 110.85 206.966 111.29C207.376 111.72 207.936 111.935 208.646 111.935C209.376 111.935 209.951 111.71 210.371 111.26C210.791 110.81 211.001 110.155 211.001 109.295V104.78H212.366ZM216.036 106.115C216.276 105.645 216.616 105.28 217.056 105.02C217.506 104.76 218.051 104.63 218.691 104.63V106.04H218.331C216.801 106.04 216.036 106.87 216.036 108.53V113H214.671V104.78H216.036V106.115ZM223.176 113.135C222.546 113.135 221.981 113.03 221.481 112.82C220.981 112.6 220.586 112.3 220.296 111.92C220.006 111.53 219.846 111.085 219.816 110.585H221.226C221.266 110.995 221.456 111.33 221.796 111.59C222.146 111.85 222.601 111.98 223.161 111.98C223.681 111.98 224.091 111.865 224.391 111.635C224.691 111.405 224.841 111.115 224.841 110.765C224.841 110.405 224.681 110.14 224.361 109.97C224.041 109.79 223.546 109.615 222.876 109.445C222.266 109.285 221.766 109.125 221.376 108.965C220.996 108.795 220.666 108.55 220.386 108.23C220.116 107.9 219.981 107.47 219.981 106.94C219.981 106.52 220.106 106.135 220.356 105.785C220.606 105.435 220.961 105.16 221.421 104.96C221.881 104.75 222.406 104.645 222.996 104.645C223.906 104.645 224.641 104.875 225.201 105.335C225.761 105.795 226.061 106.425 226.101 107.225H224.736C224.706 106.795 224.531 106.45 224.211 106.19C223.901 105.93 223.481 105.8 222.951 105.8C222.461 105.8 222.071 105.905 221.781 106.115C221.491 106.325 221.346 106.6 221.346 106.94C221.346 107.21 221.431 107.435 221.601 107.615C221.781 107.785 222.001 107.925 222.261 108.035C222.531 108.135 222.901 108.25 223.371 108.38C223.961 108.54 224.441 108.7 224.811 108.86C225.181 109.01 225.496 109.24 225.756 109.55C226.026 109.86 226.166 110.265 226.176 110.765C226.176 111.215 226.051 111.62 225.801 111.98C225.551 112.34 225.196 112.625 224.736 112.835C224.286 113.035 223.766 113.135 223.176 113.135ZM235.393 104.78V113H234.028V111.785C233.768 112.205 233.403 112.535 232.933 112.775C232.473 113.005 231.963 113.12 231.403 113.12C230.763 113.12 230.188 112.99 229.678 112.73C229.168 112.46 228.763 112.06 228.463 111.53C228.173 111 228.028 110.355 228.028 109.595V104.78H229.378V109.415C229.378 110.225 229.583 110.85 229.993 111.29C230.403 111.72 230.963 111.935 231.673 111.935C232.403 111.935 232.978 111.71 233.398 111.26C233.818 110.81 234.028 110.155 234.028 109.295V104.78H235.393ZM240.608 113.135C239.978 113.135 239.413 113.03 238.913 112.82C238.413 112.6 238.018 112.3 237.728 111.92C237.438 111.53 237.278 111.085 237.248 110.585H238.658C238.698 110.995 238.888 111.33 239.228 111.59C239.578 111.85 240.033 111.98 240.593 111.98C241.113 111.98 241.523 111.865 241.823 111.635C242.123 111.405 242.273 111.115 242.273 110.765C242.273 110.405 242.113 110.14 241.793 109.97C241.473 109.79 240.978 109.615 240.308 109.445C239.698 109.285 239.198 109.125 238.808 108.965C238.428 108.795 238.098 108.55 237.818 108.23C237.548 107.9 237.413 107.47 237.413 106.94C237.413 106.52 237.538 106.135 237.788 105.785C238.038 105.435 238.393 105.16 238.853 104.96C239.313 104.75 239.838 104.645 240.428 104.645C241.338 104.645 242.073 104.875 242.633 105.335C243.193 105.795 243.493 106.425 243.533 107.225H242.168C242.138 106.795 241.963 106.45 241.643 106.19C241.333 105.93 240.913 105.8 240.383 105.8C239.893 105.8 239.503 105.905 239.213 106.115C238.923 106.325 238.778 106.6 238.778 106.94C238.778 107.21 238.863 107.435 239.033 107.615C239.213 107.785 239.433 107.925 239.693 108.035C239.963 108.135 240.333 108.25 240.803 108.38C241.393 108.54 241.873 108.7 242.243 108.86C242.613 109.01 242.928 109.24 243.188 109.55C243.458 109.86 243.598 110.265 243.608 110.765C243.608 111.215 243.483 111.62 243.233 111.98C242.983 112.34 242.628 112.625 242.168 112.835C241.718 113.035 241.198 113.135 240.608 113.135ZM246.945 111.11L245.265 115.145H244.35L245.445 111.11H246.945ZM262.393 104.63C263.033 104.63 263.603 104.765 264.103 105.035C264.603 105.295 264.998 105.69 265.288 106.22C265.578 106.75 265.723 107.395 265.723 108.155V113H264.373V108.35C264.373 107.53 264.168 106.905 263.758 106.475C263.358 106.035 262.813 105.815 262.123 105.815C261.413 105.815 260.848 106.045 260.428 106.505C260.008 106.955 259.798 107.61 259.798 108.47V113H258.448V108.35C258.448 107.53 258.243 106.905 257.833 106.475C257.433 106.035 256.888 105.815 256.198 105.815C255.488 105.815 254.923 106.045 254.503 106.505C254.083 106.955 253.873 107.61 253.873 108.47V113H252.508V104.78H253.873V105.965C254.143 105.535 254.503 105.205 254.953 104.975C255.413 104.745 255.918 104.63 256.468 104.63C257.158 104.63 257.768 104.785 258.298 105.095C258.828 105.405 259.223 105.86 259.483 106.46C259.713 105.88 260.093 105.43 260.623 105.11C261.153 104.79 261.743 104.63 262.393 104.63ZM268.667 103.445C268.407 103.445 268.187 103.355 268.007 103.175C267.827 102.995 267.737 102.775 267.737 102.515C267.737 102.255 267.827 102.035 268.007 101.855C268.187 101.675 268.407 101.585 268.667 101.585C268.917 101.585 269.127 101.675 269.297 101.855C269.477 102.035 269.567 102.255 269.567 102.515C269.567 102.775 269.477 102.995 269.297 103.175C269.127 103.355 268.917 103.445 268.667 103.445ZM269.327 104.78V113H267.962V104.78H269.327ZM275.142 108.86C275.142 108.02 275.312 107.285 275.652 106.655C275.992 106.015 276.457 105.52 277.047 105.17C277.647 104.82 278.317 104.645 279.057 104.645C279.767 104.645 280.387 104.805 280.917 105.125C281.457 105.435 281.852 105.82 282.102 106.28V104.78H283.482V116.9H282.102V111.485C281.842 111.945 281.442 112.335 280.902 112.655C280.362 112.975 279.732 113.135 279.012 113.135C278.292 113.135 277.637 112.955 277.047 112.595C276.457 112.235 275.992 111.73 275.652 111.08C275.312 110.43 275.142 109.69 275.142 108.86ZM282.102 108.875C282.102 108.255 281.977 107.715 281.727 107.255C281.477 106.795 281.137 106.445 280.707 106.205C280.287 105.955 279.822 105.83 279.312 105.83C278.802 105.83 278.337 105.95 277.917 106.19C277.497 106.43 277.162 106.78 276.912 107.24C276.662 107.7 276.537 108.24 276.537 108.86C276.537 109.49 276.662 110.04 276.912 110.51C277.162 110.97 277.497 111.325 277.917 111.575C278.337 111.815 278.802 111.935 279.312 111.935C279.822 111.935 280.287 111.815 280.707 111.575C281.137 111.325 281.477 110.97 281.727 110.51C281.977 110.04 282.102 109.495 282.102 108.875ZM293.079 104.78V113H291.714V111.785C291.454 112.205 291.089 112.535 290.619 112.775C290.159 113.005 289.649 113.12 289.089 113.12C288.449 113.12 287.874 112.99 287.364 112.73C286.854 112.46 286.449 112.06 286.149 111.53C285.859 111 285.714 110.355 285.714 109.595V104.78H287.064V109.415C287.064 110.225 287.269 110.85 287.679 111.29C288.089 111.72 288.649 111.935 289.359 111.935C290.089 111.935 290.664 111.71 291.084 111.26C291.504 110.81 291.714 110.155 291.714 109.295V104.78H293.079ZM296.089 103.445C295.829 103.445 295.609 103.355 295.429 103.175C295.249 102.995 295.159 102.775 295.159 102.515C295.159 102.255 295.249 102.035 295.429 101.855C295.609 101.675 295.829 101.585 296.089 101.585C296.339 101.585 296.549 101.675 296.719 101.855C296.899 102.035 296.989 102.255 296.989 102.515C296.989 102.775 296.899 102.995 296.719 103.175C296.549 103.355 296.339 103.445 296.089 103.445ZM296.749 104.78V113H295.384V104.78H296.749ZM301.985 113.135C301.355 113.135 300.79 113.03 300.29 112.82C299.79 112.6 299.395 112.3 299.105 111.92C298.815 111.53 298.655 111.085 298.625 110.585H300.035C300.075 110.995 300.265 111.33 300.605 111.59C300.955 111.85 301.41 111.98 301.97 111.98C302.49 111.98 302.9 111.865 303.2 111.635C303.5 111.405 303.65 111.115 303.65 110.765C303.65 110.405 303.49 110.14 303.17 109.97C302.85 109.79 302.355 109.615 301.685 109.445C301.075 109.285 300.575 109.125 300.185 108.965C299.805 108.795 299.475 108.55 299.195 108.23C298.925 107.9 298.79 107.47 298.79 106.94C298.79 106.52 298.915 106.135 299.165 105.785C299.415 105.435 299.77 105.16 300.23 104.96C300.69 104.75 301.215 104.645 301.805 104.645C302.715 104.645 303.45 104.875 304.01 105.335C304.57 105.795 304.87 106.425 304.91 107.225H303.545C303.515 106.795 303.34 106.45 303.02 106.19C302.71 105.93 302.29 105.8 301.76 105.8C301.27 105.8 300.88 105.905 300.59 106.115C300.3 106.325 300.155 106.6 300.155 106.94C300.155 107.21 300.24 107.435 300.41 107.615C300.59 107.785 300.81 107.925 301.07 108.035C301.34 108.135 301.71 108.25 302.18 108.38C302.77 108.54 303.25 108.7 303.62 108.86C303.99 109.01 304.305 109.24 304.565 109.55C304.835 109.86 304.975 110.265 304.985 110.765C304.985 111.215 304.86 111.62 304.61 111.98C304.36 112.34 304.005 112.625 303.545 112.835C303.095 113.035 302.575 113.135 301.985 113.135ZM307.347 113.09C307.087 113.09 306.867 113 306.687 112.82C306.507 112.64 306.417 112.42 306.417 112.16C306.417 111.9 306.507 111.68 306.687 111.5C306.867 111.32 307.087 111.23 307.347 111.23C307.597 111.23 307.807 111.32 307.977 111.5C308.157 111.68 308.247 111.9 308.247 112.16C308.247 112.42 308.157 112.64 307.977 112.82C307.807 113 307.597 113.09 307.347 113.09Z" fill="#645C55"/>
</svg>
